// =============================================================================
// Scilab ( https://www.scilab.org/ ) - This file is part of Scilab
// Copyright (C) 2014 - Scilab Enterprises - Paul Bignier
//
//  This file is distributed under the same license as the Scilab package.
// =============================================================================
// <-- CLI SHELL MODE -->
loadXcosLibs();
scicos_log("TRACE");
// Check consecutive initialization of a diagram in a SuperBlock
super = scicos_block();
Xcos info:    objectCreated( 1 , BLOCK )
Xcos trace:   objectReferenced( 1 , BLOCK ) : 1
Xcos trace:   propertyUpdated( 1 , BLOCK , GEOMETRY ) : NO_CHANGES
Xcos trace:   propertyUpdated( 1 , BLOCK , GEOMETRY ) : NO_CHANGES
Xcos trace:   propertyUpdated( 1 , BLOCK , EXPRS ) : NO_CHANGES
Xcos trace:   propertyUpdated( 1 , BLOCK , DESCRIPTION ) : NO_CHANGES
Xcos trace:   propertyUpdated( 1 , BLOCK , STYLE ) : NO_CHANGES
Xcos trace:   objectUnreferenced( 1 , BLOCK ) : 0
Xcos trace:   objectReferenced( 1 , BLOCK ) : 1
Xcos trace:   propertyUpdated( 1 , BLOCK , SIM_FUNCTION_NAME ) : NO_CHANGES
Xcos trace:   propertyUpdated( 1 , BLOCK , SIM_FUNCTION_API ) : NO_CHANGES
Xcos trace:   propertyUpdated( 1 , BLOCK , STATE ) : NO_CHANGES
Xcos trace:   propertyUpdated( 1 , BLOCK , DSTATE ) : NO_CHANGES
Xcos trace:   propertyUpdated( 1 , BLOCK , ODSTATE ) : NO_CHANGES
Xcos trace:   propertyUpdated( 1 , BLOCK , RPAR ) : NO_CHANGES
Xcos trace:   propertyUpdated( 1 , BLOCK , IPAR ) : NO_CHANGES
Xcos trace:   propertyUpdated( 1 , BLOCK , OPAR ) : NO_CHANGES
Xcos trace:   propertyUpdated( 1 , BLOCK , SIM_BLOCKTYPE ) : NO_CHANGES
Xcos trace:   propertyUpdated( 1 , BLOCK , SIM_DEP_UT ) : NO_CHANGES
Xcos trace:   propertyUpdated( 1 , BLOCK , DESCRIPTION ) : NO_CHANGES
Xcos trace:   propertyUpdated( 1 , BLOCK , NZCROSS ) : NO_CHANGES
Xcos trace:   propertyUpdated( 1 , BLOCK , NMODE ) : NO_CHANGES
Xcos trace:   propertyUpdated( 1 , BLOCK , EQUATIONS ) : NO_CHANGES
Xcos trace:   propertyUpdated( 1 , BLOCK , UID ) : NO_CHANGES
Xcos trace:   objectUnreferenced( 1 , BLOCK ) : 0
Xcos trace:   propertyUpdated( 1 , BLOCK , INTERFACE_FUNCTION ) : NO_CHANGES
d         = scicos_diagram();
Xcos info:    objectCreated( 2 , DIAGRAM )
Xcos trace:   objectReferenced( 2 , DIAGRAM ) : 1
Xcos trace:   propertyUpdated( 2 , DIAGRAM , TITLE ) : NO_CHANGES
Xcos trace:   propertyUpdated( 2 , DIAGRAM , PATH ) : NO_CHANGES
Xcos trace:   propertyUpdated( 2 , DIAGRAM , PROPERTIES ) : NO_CHANGES
Xcos trace:   propertyUpdated( 2 , DIAGRAM , PROPERTIES ) : NO_CHANGES
Xcos trace:   propertyUpdated( 2 , DIAGRAM , CONTEXT ) : NO_CHANGES
Xcos trace:   objectUnreferenced( 2 , DIAGRAM ) : 0
Xcos trace:   propertyUpdated( 2 , DIAGRAM , CHILDREN ) : NO_CHANGES
Xcos debug:   propertyUpdated( 2 , DIAGRAM , VERSION_NUMBER ) : SUCCESS
sub       = scicos_block();
Xcos info:    objectCreated( 3 , BLOCK )
Xcos trace:   objectReferenced( 3 , BLOCK ) : 1
Xcos trace:   propertyUpdated( 3 , BLOCK , GEOMETRY ) : NO_CHANGES
Xcos trace:   propertyUpdated( 3 , BLOCK , GEOMETRY ) : NO_CHANGES
Xcos trace:   propertyUpdated( 3 , BLOCK , EXPRS ) : NO_CHANGES
Xcos trace:   propertyUpdated( 3 , BLOCK , DESCRIPTION ) : NO_CHANGES
Xcos trace:   propertyUpdated( 3 , BLOCK , STYLE ) : NO_CHANGES
Xcos trace:   objectUnreferenced( 3 , BLOCK ) : 0
Xcos trace:   objectReferenced( 3 , BLOCK ) : 1
Xcos trace:   propertyUpdated( 3 , BLOCK , SIM_FUNCTION_NAME ) : NO_CHANGES
Xcos trace:   propertyUpdated( 3 , BLOCK , SIM_FUNCTION_API ) : NO_CHANGES
Xcos trace:   propertyUpdated( 3 , BLOCK , STATE ) : NO_CHANGES
Xcos trace:   propertyUpdated( 3 , BLOCK , DSTATE ) : NO_CHANGES
Xcos trace:   propertyUpdated( 3 , BLOCK , ODSTATE ) : NO_CHANGES
Xcos trace:   propertyUpdated( 3 , BLOCK , RPAR ) : NO_CHANGES
Xcos trace:   propertyUpdated( 3 , BLOCK , IPAR ) : NO_CHANGES
Xcos trace:   propertyUpdated( 3 , BLOCK , OPAR ) : NO_CHANGES
Xcos trace:   propertyUpdated( 3 , BLOCK , SIM_BLOCKTYPE ) : NO_CHANGES
Xcos trace:   propertyUpdated( 3 , BLOCK , SIM_DEP_UT ) : NO_CHANGES
Xcos trace:   propertyUpdated( 3 , BLOCK , DESCRIPTION ) : NO_CHANGES
Xcos trace:   propertyUpdated( 3 , BLOCK , NZCROSS ) : NO_CHANGES
Xcos trace:   propertyUpdated( 3 , BLOCK , NMODE ) : NO_CHANGES
Xcos trace:   propertyUpdated( 3 , BLOCK , EQUATIONS ) : NO_CHANGES
Xcos trace:   propertyUpdated( 3 , BLOCK , UID ) : NO_CHANGES
Xcos trace:   objectUnreferenced( 3 , BLOCK ) : 0
Xcos trace:   propertyUpdated( 3 , BLOCK , INTERFACE_FUNCTION ) : NO_CHANGES
d.objs(1) = sub;
Xcos info:    objectCreated( 4 , BLOCK )
Xcos info:    objectCloned( 3 , 4 , BLOCK )
Xcos trace:   propertyUpdated( 4 , BLOCK , SIM_FUNCTION_API ) : NO_CHANGES
Xcos trace:   propertyUpdated( 4 , BLOCK , DESCRIPTION ) : NO_CHANGES
Xcos trace:   propertyUpdated( 4 , BLOCK , INTERFACE_FUNCTION ) : NO_CHANGES
Xcos trace:   propertyUpdated( 4 , BLOCK , SIM_FUNCTION_NAME ) : NO_CHANGES
Xcos trace:   propertyUpdated( 4 , BLOCK , SIM_BLOCKTYPE ) : NO_CHANGES
Xcos trace:   propertyUpdated( 4 , BLOCK , UID ) : NO_CHANGES
Xcos trace:   propertyUpdated( 4 , BLOCK , STYLE ) : NO_CHANGES
Xcos trace:   propertyUpdated( 4 , BLOCK , GEOMETRY ) : NO_CHANGES
Xcos trace:   propertyUpdated( 4 , BLOCK , EXPRS ) : NO_CHANGES
Xcos trace:   propertyUpdated( 4 , BLOCK , STATE ) : NO_CHANGES
Xcos trace:   propertyUpdated( 4 , BLOCK , DSTATE ) : NO_CHANGES
Xcos trace:   propertyUpdated( 4 , BLOCK , ODSTATE ) : NO_CHANGES
Xcos trace:   propertyUpdated( 4 , BLOCK , RPAR ) : NO_CHANGES
Xcos trace:   propertyUpdated( 4 , BLOCK , OPAR ) : NO_CHANGES
Xcos trace:   propertyUpdated( 4 , BLOCK , EQUATIONS ) : NO_CHANGES
Xcos trace:   propertyUpdated( 4 , BLOCK , SIM_DEP_UT ) : NO_CHANGES
Xcos trace:   propertyUpdated( 4 , BLOCK , NZCROSS ) : NO_CHANGES
Xcos trace:   propertyUpdated( 4 , BLOCK , NMODE ) : NO_CHANGES
Xcos trace:   propertyUpdated( 4 , BLOCK , IPAR ) : NO_CHANGES
Xcos trace:   propertyUpdated( 4 , BLOCK , COLOR ) : NO_CHANGES
Xcos trace:   propertyUpdated( 4 , BLOCK , CONTEXT ) : NO_CHANGES
Xcos trace:   propertyUpdated( 4 , BLOCK , PARENT_DIAGRAM ) : NO_CHANGES
Xcos trace:   propertyUpdated( 4 , BLOCK , INPUTS ) : NO_CHANGES
Xcos trace:   propertyUpdated( 4 , BLOCK , OUTPUTS ) : NO_CHANGES
Xcos trace:   propertyUpdated( 4 , BLOCK , EVENT_INPUTS ) : NO_CHANGES
Xcos trace:   propertyUpdated( 4 , BLOCK , EVENT_OUTPUTS ) : NO_CHANGES
Xcos trace:   propertyUpdated( 4 , BLOCK , PARENT_BLOCK ) : NO_CHANGES
Xcos trace:   propertyUpdated( 4 , BLOCK , CHILDREN ) : NO_CHANGES
Xcos trace:   objectReferenced( 4 , BLOCK ) : 1
Xcos debug:   propertyUpdated( 4 , BLOCK , PARENT_DIAGRAM ) : SUCCESS
Xcos trace:   propertyUpdated( 4 , BLOCK , PARENT_BLOCK ) : NO_CHANGES
Xcos debug:   propertyUpdated( 2 , DIAGRAM , CHILDREN ) : SUCCESS
Xcos trace:   objectUnreferenced( 4 , BLOCK ) : 0
super.model.rpar = d;
Xcos trace:   objectReferenced( 1 , BLOCK ) : 1
Xcos trace:   objectUnreferenced( 1 , BLOCK ) : 0
Xcos trace:   objectReferenced( 1 , BLOCK ) : 1
Xcos trace:   propertyUpdated( 1 , BLOCK , SIM_FUNCTION_NAME ) : NO_CHANGES
Xcos trace:   propertyUpdated( 1 , BLOCK , SIM_FUNCTION_API ) : NO_CHANGES
Xcos trace:   propertyUpdated( 1 , BLOCK , STATE ) : NO_CHANGES
Xcos trace:   propertyUpdated( 1 , BLOCK , DSTATE ) : NO_CHANGES
Xcos trace:   propertyUpdated( 1 , BLOCK , ODSTATE ) : NO_CHANGES
Xcos trace:   objectReferenced( 1 , BLOCK ) : 2
Xcos trace:   objectReferenced( 4 , BLOCK ) : 1
Xcos info:    objectCreated( 5 , BLOCK )
Xcos info:    objectCloned( 4 , 5 , BLOCK )
Xcos trace:   propertyUpdated( 5 , BLOCK , SIM_FUNCTION_API ) : NO_CHANGES
Xcos trace:   propertyUpdated( 5 , BLOCK , DESCRIPTION ) : NO_CHANGES
Xcos trace:   propertyUpdated( 5 , BLOCK , INTERFACE_FUNCTION ) : NO_CHANGES
Xcos trace:   propertyUpdated( 5 , BLOCK , SIM_FUNCTION_NAME ) : NO_CHANGES
Xcos trace:   propertyUpdated( 5 , BLOCK , SIM_BLOCKTYPE ) : NO_CHANGES
Xcos trace:   propertyUpdated( 5 , BLOCK , UID ) : NO_CHANGES
Xcos trace:   propertyUpdated( 5 , BLOCK , STYLE ) : NO_CHANGES
Xcos trace:   propertyUpdated( 5 , BLOCK , GEOMETRY ) : NO_CHANGES
Xcos trace:   propertyUpdated( 5 , BLOCK , EXPRS ) : NO_CHANGES
Xcos trace:   propertyUpdated( 5 , BLOCK , STATE ) : NO_CHANGES
Xcos trace:   propertyUpdated( 5 , BLOCK , DSTATE ) : NO_CHANGES
Xcos trace:   propertyUpdated( 5 , BLOCK , ODSTATE ) : NO_CHANGES
Xcos trace:   propertyUpdated( 5 , BLOCK , RPAR ) : NO_CHANGES
Xcos trace:   propertyUpdated( 5 , BLOCK , OPAR ) : NO_CHANGES
Xcos trace:   propertyUpdated( 5 , BLOCK , EQUATIONS ) : NO_CHANGES
Xcos trace:   propertyUpdated( 5 , BLOCK , SIM_DEP_UT ) : NO_CHANGES
Xcos trace:   propertyUpdated( 5 , BLOCK , NZCROSS ) : NO_CHANGES
Xcos trace:   propertyUpdated( 5 , BLOCK , NMODE ) : NO_CHANGES
Xcos trace:   propertyUpdated( 5 , BLOCK , IPAR ) : NO_CHANGES
Xcos trace:   propertyUpdated( 5 , BLOCK , COLOR ) : NO_CHANGES
Xcos trace:   propertyUpdated( 5 , BLOCK , CONTEXT ) : NO_CHANGES
Xcos trace:   propertyUpdated( 5 , BLOCK , PARENT_DIAGRAM ) : NO_CHANGES
Xcos trace:   propertyUpdated( 5 , BLOCK , INPUTS ) : NO_CHANGES
Xcos trace:   propertyUpdated( 5 , BLOCK , OUTPUTS ) : NO_CHANGES
Xcos trace:   propertyUpdated( 5 , BLOCK , EVENT_INPUTS ) : NO_CHANGES
Xcos trace:   propertyUpdated( 5 , BLOCK , EVENT_OUTPUTS ) : NO_CHANGES
Xcos trace:   propertyUpdated( 5 , BLOCK , PARENT_BLOCK ) : NO_CHANGES
Xcos trace:   propertyUpdated( 5 , BLOCK , CHILDREN ) : NO_CHANGES
Xcos trace:   objectReferenced( 5 , BLOCK ) : 1
Xcos trace:   propertyUpdated( 5 , BLOCK , PARENT_DIAGRAM ) : NO_CHANGES
Xcos debug:   propertyUpdated( 5 , BLOCK , PARENT_BLOCK ) : SUCCESS
Xcos debug:   propertyUpdated( 1 , BLOCK , CHILDREN ) : SUCCESS
Xcos trace:   objectUnreferenced( 5 , BLOCK ) : 0
Xcos trace:   objectUnreferenced( 4 , BLOCK ) : 0
Xcos trace:   objectReferenced( 2 , DIAGRAM ) : 1
Xcos trace:   objectUnreferenced( 2 , DIAGRAM ) : 0
Xcos trace:   objectReferenced( 1 , BLOCK ) : 3
Xcos debug:   propertyUpdated( 1 , BLOCK , DESCRIPTION ) : SUCCESS
Xcos trace:   propertyUpdated( 1 , BLOCK , CONTEXT ) : NO_CHANGES
Xcos trace:   objectUnreferenced( 1 , BLOCK ) : 2
Xcos trace:   objectUnreferenced( 1 , BLOCK ) : 1
Xcos trace:   propertyUpdated( 1 , BLOCK , IPAR ) : NO_CHANGES
Xcos trace:   propertyUpdated( 1 , BLOCK , OPAR ) : NO_CHANGES
Xcos trace:   propertyUpdated( 1 , BLOCK , SIM_BLOCKTYPE ) : NO_CHANGES
Xcos trace:   propertyUpdated( 1 , BLOCK , SIM_DEP_UT ) : NO_CHANGES
Xcos debug:   propertyUpdated( 1 , BLOCK , DESCRIPTION ) : SUCCESS
Xcos trace:   propertyUpdated( 1 , BLOCK , NZCROSS ) : NO_CHANGES
Xcos trace:   propertyUpdated( 1 , BLOCK , NMODE ) : NO_CHANGES
Xcos trace:   propertyUpdated( 1 , BLOCK , EQUATIONS ) : NO_CHANGES
Xcos trace:   propertyUpdated( 1 , BLOCK , UID ) : NO_CHANGES
Xcos trace:   objectUnreferenced( 1 , BLOCK ) : 0
// 'b' is a SuperBlock containing a Block
sizeBeforeInsert = size(super.model.rpar.objs);
Xcos trace:   objectReferenced( 1 , BLOCK ) : 1
Xcos trace:   objectReferenced( 1 , BLOCK ) : 2
Xcos trace:   objectUnreferenced( 1 , BLOCK ) : 1
Xcos trace:   objectReferenced( 5 , BLOCK ) : 1
Xcos trace:   objectUnreferenced( 1 , BLOCK ) : 0
Xcos trace:   objectUnreferenced( 5 , BLOCK ) : 0
super.model.rpar = d;
Xcos trace:   objectReferenced( 1 , BLOCK ) : 1
Xcos trace:   objectReferenced( 1 , BLOCK ) : 2
Xcos trace:   objectUnreferenced( 1 , BLOCK ) : 1
Xcos trace:   objectUnreferenced( 1 , BLOCK ) : 0
Xcos trace:   objectReferenced( 1 , BLOCK ) : 1
Xcos trace:   propertyUpdated( 1 , BLOCK , SIM_FUNCTION_NAME ) : NO_CHANGES
Xcos trace:   propertyUpdated( 1 , BLOCK , SIM_FUNCTION_API ) : NO_CHANGES
Xcos trace:   propertyUpdated( 1 , BLOCK , STATE ) : NO_CHANGES
Xcos trace:   propertyUpdated( 1 , BLOCK , DSTATE ) : NO_CHANGES
Xcos trace:   propertyUpdated( 1 , BLOCK , ODSTATE ) : NO_CHANGES
Xcos trace:   objectReferenced( 1 , BLOCK ) : 2
Xcos trace:   objectReferenced( 4 , BLOCK ) : 1
Xcos info:    objectCreated( 6 , BLOCK )
Xcos info:    objectCloned( 4 , 6 , BLOCK )
Xcos trace:   propertyUpdated( 6 , BLOCK , SIM_FUNCTION_API ) : NO_CHANGES
Xcos trace:   propertyUpdated( 6 , BLOCK , DESCRIPTION ) : NO_CHANGES
Xcos trace:   propertyUpdated( 6 , BLOCK , INTERFACE_FUNCTION ) : NO_CHANGES
Xcos trace:   propertyUpdated( 6 , BLOCK , SIM_FUNCTION_NAME ) : NO_CHANGES
Xcos trace:   propertyUpdated( 6 , BLOCK , SIM_BLOCKTYPE ) : NO_CHANGES
Xcos trace:   propertyUpdated( 6 , BLOCK , UID ) : NO_CHANGES
Xcos trace:   propertyUpdated( 6 , BLOCK , STYLE ) : NO_CHANGES
Xcos trace:   propertyUpdated( 6 , BLOCK , GEOMETRY ) : NO_CHANGES
Xcos trace:   propertyUpdated( 6 , BLOCK , EXPRS ) : NO_CHANGES
Xcos trace:   propertyUpdated( 6 , BLOCK , STATE ) : NO_CHANGES
Xcos trace:   propertyUpdated( 6 , BLOCK , DSTATE ) : NO_CHANGES
Xcos trace:   propertyUpdated( 6 , BLOCK , ODSTATE ) : NO_CHANGES
Xcos trace:   propertyUpdated( 6 , BLOCK , RPAR ) : NO_CHANGES
Xcos trace:   propertyUpdated( 6 , BLOCK , OPAR ) : NO_CHANGES
Xcos trace:   propertyUpdated( 6 , BLOCK , EQUATIONS ) : NO_CHANGES
Xcos trace:   propertyUpdated( 6 , BLOCK , SIM_DEP_UT ) : NO_CHANGES
Xcos trace:   propertyUpdated( 6 , BLOCK , NZCROSS ) : NO_CHANGES
Xcos trace:   propertyUpdated( 6 , BLOCK , NMODE ) : NO_CHANGES
Xcos trace:   propertyUpdated( 6 , BLOCK , IPAR ) : NO_CHANGES
Xcos trace:   propertyUpdated( 6 , BLOCK , COLOR ) : NO_CHANGES
Xcos trace:   propertyUpdated( 6 , BLOCK , CONTEXT ) : NO_CHANGES
Xcos trace:   propertyUpdated( 6 , BLOCK , PARENT_DIAGRAM ) : NO_CHANGES
Xcos trace:   propertyUpdated( 6 , BLOCK , INPUTS ) : NO_CHANGES
Xcos trace:   propertyUpdated( 6 , BLOCK , OUTPUTS ) : NO_CHANGES
Xcos trace:   propertyUpdated( 6 , BLOCK , EVENT_INPUTS ) : NO_CHANGES
Xcos trace:   propertyUpdated( 6 , BLOCK , EVENT_OUTPUTS ) : NO_CHANGES
Xcos trace:   propertyUpdated( 6 , BLOCK , PARENT_BLOCK ) : NO_CHANGES
Xcos trace:   propertyUpdated( 6 , BLOCK , CHILDREN ) : NO_CHANGES
Xcos trace:   objectReferenced( 6 , BLOCK ) : 1
Xcos debug:   propertyUpdated( 1 , BLOCK , CHILDREN ) : SUCCESS
Xcos info:    objectDeleted( 5 , BLOCK )
Xcos trace:   propertyUpdated( 6 , BLOCK , PARENT_DIAGRAM ) : NO_CHANGES
Xcos debug:   propertyUpdated( 6 , BLOCK , PARENT_BLOCK ) : SUCCESS
Xcos debug:   propertyUpdated( 1 , BLOCK , CHILDREN ) : SUCCESS
Xcos trace:   objectUnreferenced( 6 , BLOCK ) : 0
Xcos trace:   objectUnreferenced( 4 , BLOCK ) : 0
Xcos trace:   objectReferenced( 2 , DIAGRAM ) : 1
Xcos trace:   objectUnreferenced( 2 , DIAGRAM ) : 0
Xcos trace:   objectReferenced( 1 , BLOCK ) : 3
Xcos debug:   propertyUpdated( 1 , BLOCK , DESCRIPTION ) : SUCCESS
Xcos trace:   propertyUpdated( 1 , BLOCK , CONTEXT ) : NO_CHANGES
Xcos trace:   objectUnreferenced( 1 , BLOCK ) : 2
Xcos trace:   objectUnreferenced( 1 , BLOCK ) : 1
Xcos trace:   propertyUpdated( 1 , BLOCK , IPAR ) : NO_CHANGES
Xcos trace:   propertyUpdated( 1 , BLOCK , OPAR ) : NO_CHANGES
Xcos trace:   propertyUpdated( 1 , BLOCK , SIM_BLOCKTYPE ) : NO_CHANGES
Xcos trace:   propertyUpdated( 1 , BLOCK , SIM_DEP_UT ) : NO_CHANGES
Xcos debug:   propertyUpdated( 1 , BLOCK , DESCRIPTION ) : SUCCESS
Xcos trace:   propertyUpdated( 1 , BLOCK , NZCROSS ) : NO_CHANGES
Xcos trace:   propertyUpdated( 1 , BLOCK , NMODE ) : NO_CHANGES
Xcos trace:   propertyUpdated( 1 , BLOCK , EQUATIONS ) : NO_CHANGES
Xcos trace:   propertyUpdated( 1 , BLOCK , UID ) : NO_CHANGES
Xcos trace:   objectUnreferenced( 1 , BLOCK ) : 0
sizeAfterInsert  = size(super.model.rpar.objs);
Xcos trace:   objectReferenced( 1 , BLOCK ) : 1
Xcos trace:   objectReferenced( 1 , BLOCK ) : 2
Xcos trace:   objectUnreferenced( 1 , BLOCK ) : 1
Xcos trace:   objectReferenced( 6 , BLOCK ) : 1
Xcos trace:   objectUnreferenced( 1 , BLOCK ) : 0
Xcos trace:   objectUnreferenced( 6 , BLOCK ) : 0
assert_checkequal(sizeBeforeInsert, 1);
assert_checkequal(sizeAfterInsert,  1);
// Check consecutive initialization of a SuperBlock in a diagram
superD = scicos_diagram();
Xcos info:    objectCreated( 7 , DIAGRAM )
Xcos trace:   objectReferenced( 7 , DIAGRAM ) : 1
Xcos trace:   propertyUpdated( 7 , DIAGRAM , TITLE ) : NO_CHANGES
Xcos trace:   propertyUpdated( 7 , DIAGRAM , PATH ) : NO_CHANGES
Xcos trace:   propertyUpdated( 7 , DIAGRAM , PROPERTIES ) : NO_CHANGES
Xcos trace:   propertyUpdated( 7 , DIAGRAM , PROPERTIES ) : NO_CHANGES
Xcos trace:   propertyUpdated( 7 , DIAGRAM , CONTEXT ) : NO_CHANGES
Xcos trace:   objectUnreferenced( 7 , DIAGRAM ) : 0
Xcos trace:   propertyUpdated( 7 , DIAGRAM , CHILDREN ) : NO_CHANGES
Xcos debug:   propertyUpdated( 7 , DIAGRAM , VERSION_NUMBER ) : SUCCESS
superD.objs(1) = super;
Xcos info:    objectCreated( 8 , BLOCK )
Xcos info:    objectCloned( 1 , 8 , BLOCK )
Xcos trace:   propertyUpdated( 8 , BLOCK , SIM_FUNCTION_API ) : NO_CHANGES
Xcos trace:   propertyUpdated( 8 , BLOCK , DESCRIPTION ) : NO_CHANGES
Xcos trace:   propertyUpdated( 8 , BLOCK , INTERFACE_FUNCTION ) : NO_CHANGES
Xcos trace:   propertyUpdated( 8 , BLOCK , SIM_FUNCTION_NAME ) : NO_CHANGES
Xcos trace:   propertyUpdated( 8 , BLOCK , SIM_BLOCKTYPE ) : NO_CHANGES
Xcos trace:   propertyUpdated( 8 , BLOCK , UID ) : NO_CHANGES
Xcos trace:   propertyUpdated( 8 , BLOCK , STYLE ) : NO_CHANGES
Xcos trace:   propertyUpdated( 8 , BLOCK , GEOMETRY ) : NO_CHANGES
Xcos trace:   propertyUpdated( 8 , BLOCK , EXPRS ) : NO_CHANGES
Xcos trace:   propertyUpdated( 8 , BLOCK , STATE ) : NO_CHANGES
Xcos trace:   propertyUpdated( 8 , BLOCK , DSTATE ) : NO_CHANGES
Xcos trace:   propertyUpdated( 8 , BLOCK , ODSTATE ) : NO_CHANGES
Xcos trace:   propertyUpdated( 8 , BLOCK , RPAR ) : NO_CHANGES
Xcos trace:   propertyUpdated( 8 , BLOCK , OPAR ) : NO_CHANGES
Xcos trace:   propertyUpdated( 8 , BLOCK , EQUATIONS ) : NO_CHANGES
Xcos trace:   propertyUpdated( 8 , BLOCK , SIM_DEP_UT ) : NO_CHANGES
Xcos trace:   propertyUpdated( 8 , BLOCK , NZCROSS ) : NO_CHANGES
Xcos trace:   propertyUpdated( 8 , BLOCK , NMODE ) : NO_CHANGES
Xcos trace:   propertyUpdated( 8 , BLOCK , IPAR ) : NO_CHANGES
Xcos trace:   propertyUpdated( 8 , BLOCK , COLOR ) : NO_CHANGES
Xcos trace:   propertyUpdated( 8 , BLOCK , CONTEXT ) : NO_CHANGES
Xcos trace:   propertyUpdated( 8 , BLOCK , PARENT_DIAGRAM ) : NO_CHANGES
Xcos trace:   propertyUpdated( 8 , BLOCK , INPUTS ) : NO_CHANGES
Xcos trace:   propertyUpdated( 8 , BLOCK , OUTPUTS ) : NO_CHANGES
Xcos trace:   propertyUpdated( 8 , BLOCK , EVENT_INPUTS ) : NO_CHANGES
Xcos trace:   propertyUpdated( 8 , BLOCK , EVENT_OUTPUTS ) : NO_CHANGES
Xcos trace:   propertyUpdated( 8 , BLOCK , PARENT_BLOCK ) : NO_CHANGES
Xcos info:    objectCreated( 9 , BLOCK )
Xcos info:    objectCloned( 6 , 9 , BLOCK )
Xcos trace:   propertyUpdated( 9 , BLOCK , SIM_FUNCTION_API ) : NO_CHANGES
Xcos trace:   propertyUpdated( 9 , BLOCK , DESCRIPTION ) : NO_CHANGES
Xcos trace:   propertyUpdated( 9 , BLOCK , INTERFACE_FUNCTION ) : NO_CHANGES
Xcos trace:   propertyUpdated( 9 , BLOCK , SIM_FUNCTION_NAME ) : NO_CHANGES
Xcos trace:   propertyUpdated( 9 , BLOCK , SIM_BLOCKTYPE ) : NO_CHANGES
Xcos trace:   propertyUpdated( 9 , BLOCK , UID ) : NO_CHANGES
Xcos trace:   propertyUpdated( 9 , BLOCK , STYLE ) : NO_CHANGES
Xcos trace:   propertyUpdated( 9 , BLOCK , GEOMETRY ) : NO_CHANGES
Xcos trace:   propertyUpdated( 9 , BLOCK , EXPRS ) : NO_CHANGES
Xcos trace:   propertyUpdated( 9 , BLOCK , STATE ) : NO_CHANGES
Xcos trace:   propertyUpdated( 9 , BLOCK , DSTATE ) : NO_CHANGES
Xcos trace:   propertyUpdated( 9 , BLOCK , ODSTATE ) : NO_CHANGES
Xcos trace:   propertyUpdated( 9 , BLOCK , RPAR ) : NO_CHANGES
Xcos trace:   propertyUpdated( 9 , BLOCK , OPAR ) : NO_CHANGES
Xcos trace:   propertyUpdated( 9 , BLOCK , EQUATIONS ) : NO_CHANGES
Xcos trace:   propertyUpdated( 9 , BLOCK , SIM_DEP_UT ) : NO_CHANGES
Xcos trace:   propertyUpdated( 9 , BLOCK , NZCROSS ) : NO_CHANGES
Xcos trace:   propertyUpdated( 9 , BLOCK , NMODE ) : NO_CHANGES
Xcos trace:   propertyUpdated( 9 , BLOCK , IPAR ) : NO_CHANGES
Xcos trace:   propertyUpdated( 9 , BLOCK , COLOR ) : NO_CHANGES
Xcos trace:   propertyUpdated( 9 , BLOCK , CONTEXT ) : NO_CHANGES
Xcos trace:   propertyUpdated( 9 , BLOCK , PARENT_DIAGRAM ) : NO_CHANGES
Xcos trace:   propertyUpdated( 9 , BLOCK , INPUTS ) : NO_CHANGES
Xcos trace:   propertyUpdated( 9 , BLOCK , OUTPUTS ) : NO_CHANGES
Xcos trace:   propertyUpdated( 9 , BLOCK , EVENT_INPUTS ) : NO_CHANGES
Xcos trace:   propertyUpdated( 9 , BLOCK , EVENT_OUTPUTS ) : NO_CHANGES
Xcos debug:   propertyUpdated( 9 , BLOCK , PARENT_BLOCK ) : SUCCESS
Xcos trace:   propertyUpdated( 9 , BLOCK , CHILDREN ) : NO_CHANGES
Xcos debug:   propertyUpdated( 8 , BLOCK , CHILDREN ) : SUCCESS
Xcos trace:   objectReferenced( 8 , BLOCK ) : 1
Xcos debug:   propertyUpdated( 8 , BLOCK , PARENT_DIAGRAM ) : SUCCESS
Xcos trace:   propertyUpdated( 8 , BLOCK , PARENT_BLOCK ) : NO_CHANGES
Xcos debug:   propertyUpdated( 7 , DIAGRAM , CHILDREN ) : SUCCESS
Xcos trace:   objectUnreferenced( 8 , BLOCK ) : 0
// 'superD' is a diagram containing a SuperBlock
sBeforeInsert = size(superD.objs(1).model.rpar.objs);
Xcos trace:   objectReferenced( 8 , BLOCK ) : 1
Xcos trace:   objectReferenced( 8 , BLOCK ) : 2
Xcos trace:   objectReferenced( 8 , BLOCK ) : 3
Xcos trace:   objectUnreferenced( 8 , BLOCK ) : 2
Xcos trace:   objectUnreferenced( 8 , BLOCK ) : 1
Xcos trace:   objectReferenced( 9 , BLOCK ) : 1
Xcos trace:   objectUnreferenced( 8 , BLOCK ) : 0
Xcos trace:   objectUnreferenced( 9 , BLOCK ) : 0
superD.objs(1) = super;
Xcos trace:   objectReferenced( 8 , BLOCK ) : 1
Xcos trace:   objectUnreferenced( 8 , BLOCK ) : 0
Xcos info:    objectCreated( 10 , BLOCK )
Xcos info:    objectCloned( 1 , 10 , BLOCK )
Xcos trace:   propertyUpdated( 10 , BLOCK , SIM_FUNCTION_API ) : NO_CHANGES
Xcos trace:   propertyUpdated( 10 , BLOCK , DESCRIPTION ) : NO_CHANGES
Xcos trace:   propertyUpdated( 10 , BLOCK , INTERFACE_FUNCTION ) : NO_CHANGES
Xcos trace:   propertyUpdated( 10 , BLOCK , SIM_FUNCTION_NAME ) : NO_CHANGES
Xcos trace:   propertyUpdated( 10 , BLOCK , SIM_BLOCKTYPE ) : NO_CHANGES
Xcos trace:   propertyUpdated( 10 , BLOCK , UID ) : NO_CHANGES
Xcos trace:   propertyUpdated( 10 , BLOCK , STYLE ) : NO_CHANGES
Xcos trace:   propertyUpdated( 10 , BLOCK , GEOMETRY ) : NO_CHANGES
Xcos trace:   propertyUpdated( 10 , BLOCK , EXPRS ) : NO_CHANGES
Xcos trace:   propertyUpdated( 10 , BLOCK , STATE ) : NO_CHANGES
Xcos trace:   propertyUpdated( 10 , BLOCK , DSTATE ) : NO_CHANGES
Xcos trace:   propertyUpdated( 10 , BLOCK , ODSTATE ) : NO_CHANGES
Xcos trace:   propertyUpdated( 10 , BLOCK , RPAR ) : NO_CHANGES
Xcos trace:   propertyUpdated( 10 , BLOCK , OPAR ) : NO_CHANGES
Xcos trace:   propertyUpdated( 10 , BLOCK , EQUATIONS ) : NO_CHANGES
Xcos trace:   propertyUpdated( 10 , BLOCK , SIM_DEP_UT ) : NO_CHANGES
Xcos trace:   propertyUpdated( 10 , BLOCK , NZCROSS ) : NO_CHANGES
Xcos trace:   propertyUpdated( 10 , BLOCK , NMODE ) : NO_CHANGES
Xcos trace:   propertyUpdated( 10 , BLOCK , IPAR ) : NO_CHANGES
Xcos trace:   propertyUpdated( 10 , BLOCK , COLOR ) : NO_CHANGES
Xcos trace:   propertyUpdated( 10 , BLOCK , CONTEXT ) : NO_CHANGES
Xcos trace:   propertyUpdated( 10 , BLOCK , PARENT_DIAGRAM ) : NO_CHANGES
Xcos trace:   propertyUpdated( 10 , BLOCK , INPUTS ) : NO_CHANGES
Xcos trace:   propertyUpdated( 10 , BLOCK , OUTPUTS ) : NO_CHANGES
Xcos trace:   propertyUpdated( 10 , BLOCK , EVENT_INPUTS ) : NO_CHANGES
Xcos trace:   propertyUpdated( 10 , BLOCK , EVENT_OUTPUTS ) : NO_CHANGES
Xcos trace:   propertyUpdated( 10 , BLOCK , PARENT_BLOCK ) : NO_CHANGES
Xcos info:    objectCreated( 11 , BLOCK )
Xcos info:    objectCloned( 6 , 11 , BLOCK )
Xcos trace:   propertyUpdated( 11 , BLOCK , SIM_FUNCTION_API ) : NO_CHANGES
Xcos trace:   propertyUpdated( 11 , BLOCK , DESCRIPTION ) : NO_CHANGES
Xcos trace:   propertyUpdated( 11 , BLOCK , INTERFACE_FUNCTION ) : NO_CHANGES
Xcos trace:   propertyUpdated( 11 , BLOCK , SIM_FUNCTION_NAME ) : NO_CHANGES
Xcos trace:   propertyUpdated( 11 , BLOCK , SIM_BLOCKTYPE ) : NO_CHANGES
Xcos trace:   propertyUpdated( 11 , BLOCK , UID ) : NO_CHANGES
Xcos trace:   propertyUpdated( 11 , BLOCK , STYLE ) : NO_CHANGES
Xcos trace:   propertyUpdated( 11 , BLOCK , GEOMETRY ) : NO_CHANGES
Xcos trace:   propertyUpdated( 11 , BLOCK , EXPRS ) : NO_CHANGES
Xcos trace:   propertyUpdated( 11 , BLOCK , STATE ) : NO_CHANGES
Xcos trace:   propertyUpdated( 11 , BLOCK , DSTATE ) : NO_CHANGES
Xcos trace:   propertyUpdated( 11 , BLOCK , ODSTATE ) : NO_CHANGES
Xcos trace:   propertyUpdated( 11 , BLOCK , RPAR ) : NO_CHANGES
Xcos trace:   propertyUpdated( 11 , BLOCK , OPAR ) : NO_CHANGES
Xcos trace:   propertyUpdated( 11 , BLOCK , EQUATIONS ) : NO_CHANGES
Xcos trace:   propertyUpdated( 11 , BLOCK , SIM_DEP_UT ) : NO_CHANGES
Xcos trace:   propertyUpdated( 11 , BLOCK , NZCROSS ) : NO_CHANGES
Xcos trace:   propertyUpdated( 11 , BLOCK , NMODE ) : NO_CHANGES
Xcos trace:   propertyUpdated( 11 , BLOCK , IPAR ) : NO_CHANGES
Xcos trace:   propertyUpdated( 11 , BLOCK , COLOR ) : NO_CHANGES
Xcos trace:   propertyUpdated( 11 , BLOCK , CONTEXT ) : NO_CHANGES
Xcos trace:   propertyUpdated( 11 , BLOCK , PARENT_DIAGRAM ) : NO_CHANGES
Xcos trace:   propertyUpdated( 11 , BLOCK , INPUTS ) : NO_CHANGES
Xcos trace:   propertyUpdated( 11 , BLOCK , OUTPUTS ) : NO_CHANGES
Xcos trace:   propertyUpdated( 11 , BLOCK , EVENT_INPUTS ) : NO_CHANGES
Xcos trace:   propertyUpdated( 11 , BLOCK , EVENT_OUTPUTS ) : NO_CHANGES
Xcos debug:   propertyUpdated( 11 , BLOCK , PARENT_BLOCK ) : SUCCESS
Xcos trace:   propertyUpdated( 11 , BLOCK , CHILDREN ) : NO_CHANGES
Xcos debug:   propertyUpdated( 10 , BLOCK , CHILDREN ) : SUCCESS
Xcos trace:   objectReferenced( 10 , BLOCK ) : 1
Xcos debug:   propertyUpdated( 7 , DIAGRAM , CHILDREN ) : SUCCESS
Xcos debug:   propertyUpdated( 8 , BLOCK , CHILDREN ) : SUCCESS
Xcos info:    objectDeleted( 9 , BLOCK )
Xcos info:    objectDeleted( 8 , BLOCK )
Xcos debug:   propertyUpdated( 10 , BLOCK , PARENT_DIAGRAM ) : SUCCESS
Xcos trace:   propertyUpdated( 10 , BLOCK , PARENT_BLOCK ) : NO_CHANGES
Xcos debug:   propertyUpdated( 7 , DIAGRAM , CHILDREN ) : SUCCESS
Xcos trace:   objectUnreferenced( 10 , BLOCK ) : 0
sAfterInsert  = size(superD.objs(1).model.rpar.objs);
Xcos trace:   objectReferenced( 10 , BLOCK ) : 1
Xcos trace:   objectReferenced( 10 , BLOCK ) : 2
Xcos trace:   objectReferenced( 10 , BLOCK ) : 3
Xcos trace:   objectUnreferenced( 10 , BLOCK ) : 2
Xcos trace:   objectUnreferenced( 10 , BLOCK ) : 1
Xcos trace:   objectReferenced( 11 , BLOCK ) : 1
Xcos trace:   objectUnreferenced( 10 , BLOCK ) : 0
Xcos trace:   objectUnreferenced( 11 , BLOCK ) : 0
assert_checkequal(sizeBeforeInsert, 1);
assert_checkequal(sizeAfterInsert,  1);
// Check that all the model items are freed
clear
Xcos debug:   propertyUpdated( 4 , BLOCK , PARENT_DIAGRAM ) : SUCCESS
Xcos info:    objectDeleted( 4 , BLOCK )
Xcos info:    objectDeleted( 2 , DIAGRAM )
Xcos info:    objectDeleted( 3 , BLOCK )
Xcos debug:   propertyUpdated( 1 , BLOCK , CHILDREN ) : SUCCESS
Xcos info:    objectDeleted( 6 , BLOCK )
Xcos info:    objectDeleted( 1 , BLOCK )
Xcos debug:   propertyUpdated( 10 , BLOCK , PARENT_DIAGRAM ) : SUCCESS
Xcos debug:   propertyUpdated( 10 , BLOCK , CHILDREN ) : SUCCESS
Xcos info:    objectDeleted( 11 , BLOCK )
Xcos info:    objectDeleted( 10 , BLOCK )
Xcos info:    objectDeleted( 7 , DIAGRAM )
