// =============================================================================
// Scilab ( https://www.scilab.org/ ) - This file is part of Scilab
// Copyright (C) 2014 - Scilab Enterprises - Paul Bignier
//
//  This file is distributed under the same license as the Scilab package.
// =============================================================================
// <-- CLI SHELL MODE -->
loadXcosLibs();
scicos_log("TRACE");
link = scicos_link(from=[2,1,0],to=[3,1,1]);
Xcos info:    objectCreated( 1 , LINK )
Xcos trace:   propertyUpdated( 1 , LINK , CONTROL_POINTS ) : NO_CHANGES
Xcos trace:   propertyUpdated( 1 , LINK , CONTROL_POINTS ) : NO_CHANGES
Xcos trace:   propertyUpdated( 1 , LINK , DESCRIPTION ) : NO_CHANGES
Xcos trace:   propertyUpdated( 1 , LINK , THICK ) : NO_CHANGES
Xcos trace:   propertyUpdated( 1 , LINK , COLOR ) : NO_CHANGES
Xcos trace:   propertyUpdated( 1 , LINK , KIND ) : NO_CHANGES
subDiag = scicos_diagram( objs=list(link) );
Xcos info:    objectCreated( 2 , DIAGRAM )
Xcos trace:   objectReferenced( 2 , DIAGRAM ) : 1
Xcos trace:   propertyUpdated( 2 , DIAGRAM , TITLE ) : NO_CHANGES
Xcos trace:   propertyUpdated( 2 , DIAGRAM , PATH ) : NO_CHANGES
Xcos trace:   propertyUpdated( 2 , DIAGRAM , PROPERTIES ) : NO_CHANGES
Xcos trace:   propertyUpdated( 2 , DIAGRAM , PROPERTIES ) : NO_CHANGES
Xcos trace:   propertyUpdated( 2 , DIAGRAM , CONTEXT ) : NO_CHANGES
Xcos trace:   objectUnreferenced( 2 , DIAGRAM ) : 0
Xcos info:    objectCreated( 3 , LINK )
Xcos info:    objectCloned( 1 , 3 , LINK )
Xcos trace:   propertyUpdated( 3 , LINK , COLOR ) : NO_CHANGES
Xcos trace:   propertyUpdated( 3 , LINK , KIND ) : NO_CHANGES
Xcos trace:   propertyUpdated( 3 , LINK , DESCRIPTION ) : NO_CHANGES
Xcos trace:   propertyUpdated( 3 , LINK , UID ) : NO_CHANGES
Xcos trace:   propertyUpdated( 3 , LINK , STYLE ) : NO_CHANGES
Xcos trace:   propertyUpdated( 3 , LINK , CONTROL_POINTS ) : NO_CHANGES
Xcos trace:   propertyUpdated( 3 , LINK , THICK ) : NO_CHANGES
Xcos trace:   propertyUpdated( 3 , LINK , PARENT_DIAGRAM ) : NO_CHANGES
Xcos trace:   propertyUpdated( 3 , LINK , PARENT_BLOCK ) : NO_CHANGES
Xcos trace:   propertyUpdated( 3 , LINK , SOURCE_PORT ) : NO_CHANGES
Xcos trace:   propertyUpdated( 3 , LINK , DESTINATION_PORT ) : NO_CHANGES
Xcos trace:   objectReferenced( 3 , LINK ) : 1
Xcos debug:   propertyUpdated( 3 , LINK , PARENT_DIAGRAM ) : SUCCESS
Xcos trace:   propertyUpdated( 3 , LINK , PARENT_BLOCK ) : NO_CHANGES
Xcos debug:   propertyUpdated( 2 , DIAGRAM , CHILDREN ) : SUCCESS
Xcos trace:   objectUnreferenced( 3 , LINK ) : 0
Xcos debug:   propertyUpdated( 2 , DIAGRAM , VERSION_NUMBER ) : SUCCESS
Super1 = scicos_block(,..
model=scicos_model(sim="super",in=[],in2=[],intyp=1,out=[],out2=[],outtyp=[],evtin=[],evtout=[],state=[],dstate=[],odstate=list(),..
rpar=subDiag,..
ipar=[],opar=list(),blocktype="h",firing=[],dep_ut=[%f,%f],label="Quat_Conj",nzcross=0,nmode=0,equations=list())..
);
Xcos info:    objectCreated( 4 , BLOCK )
Xcos trace:   objectReferenced( 4 , BLOCK ) : 1
Xcos trace:   propertyUpdated( 4 , BLOCK , GEOMETRY ) : NO_CHANGES
Xcos trace:   propertyUpdated( 4 , BLOCK , GEOMETRY ) : NO_CHANGES
Xcos trace:   propertyUpdated( 4 , BLOCK , EXPRS ) : NO_CHANGES
Xcos trace:   propertyUpdated( 4 , BLOCK , DESCRIPTION ) : NO_CHANGES
Xcos trace:   propertyUpdated( 4 , BLOCK , STYLE ) : NO_CHANGES
Xcos trace:   objectUnreferenced( 4 , BLOCK ) : 0
Xcos trace:   objectReferenced( 4 , BLOCK ) : 1
Xcos debug:   propertyUpdated( 4 , BLOCK , SIM_FUNCTION_NAME ) : SUCCESS
Xcos trace:   propertyUpdated( 4 , BLOCK , SIM_FUNCTION_API ) : NO_CHANGES
Xcos trace:   propertyUpdated( 4 , BLOCK , STATE ) : NO_CHANGES
Xcos trace:   propertyUpdated( 4 , BLOCK , DSTATE ) : NO_CHANGES
Xcos trace:   propertyUpdated( 4 , BLOCK , ODSTATE ) : NO_CHANGES
Xcos trace:   objectReferenced( 4 , BLOCK ) : 2
Xcos trace:   objectReferenced( 3 , LINK ) : 1
Xcos info:    objectCreated( 5 , LINK )
Xcos info:    objectCloned( 3 , 5 , LINK )
Xcos trace:   propertyUpdated( 5 , LINK , COLOR ) : NO_CHANGES
Xcos trace:   propertyUpdated( 5 , LINK , KIND ) : NO_CHANGES
Xcos trace:   propertyUpdated( 5 , LINK , DESCRIPTION ) : NO_CHANGES
Xcos trace:   propertyUpdated( 5 , LINK , UID ) : NO_CHANGES
Xcos trace:   propertyUpdated( 5 , LINK , STYLE ) : NO_CHANGES
Xcos trace:   propertyUpdated( 5 , LINK , CONTROL_POINTS ) : NO_CHANGES
Xcos trace:   propertyUpdated( 5 , LINK , THICK ) : NO_CHANGES
Xcos trace:   propertyUpdated( 5 , LINK , PARENT_DIAGRAM ) : NO_CHANGES
Xcos trace:   propertyUpdated( 5 , LINK , PARENT_BLOCK ) : NO_CHANGES
Xcos trace:   propertyUpdated( 5 , LINK , SOURCE_PORT ) : NO_CHANGES
Xcos trace:   propertyUpdated( 5 , LINK , DESTINATION_PORT ) : NO_CHANGES
Xcos trace:   objectReferenced( 5 , LINK ) : 1
Xcos trace:   propertyUpdated( 5 , LINK , PARENT_DIAGRAM ) : NO_CHANGES
Xcos debug:   propertyUpdated( 5 , LINK , PARENT_BLOCK ) : SUCCESS
Xcos debug:   propertyUpdated( 4 , BLOCK , CHILDREN ) : SUCCESS
Xcos trace:   objectUnreferenced( 5 , LINK ) : 0
Xcos trace:   objectUnreferenced( 3 , LINK ) : 0
Xcos trace:   objectReferenced( 2 , DIAGRAM ) : 1
Xcos trace:   objectUnreferenced( 2 , DIAGRAM ) : 0
Xcos trace:   objectReferenced( 4 , BLOCK ) : 3
Xcos debug:   propertyUpdated( 4 , BLOCK , DESCRIPTION ) : SUCCESS
Xcos trace:   propertyUpdated( 4 , BLOCK , CONTEXT ) : NO_CHANGES
Xcos trace:   objectUnreferenced( 4 , BLOCK ) : 2
Xcos trace:   objectUnreferenced( 4 , BLOCK ) : 1
Xcos trace:   propertyUpdated( 4 , BLOCK , IPAR ) : NO_CHANGES
Xcos trace:   propertyUpdated( 4 , BLOCK , OPAR ) : NO_CHANGES
Xcos debug:   propertyUpdated( 4 , BLOCK , SIM_BLOCKTYPE ) : SUCCESS
Xcos trace:   propertyUpdated( 4 , BLOCK , SIM_DEP_UT ) : NO_CHANGES
Xcos debug:   propertyUpdated( 4 , BLOCK , DESCRIPTION ) : SUCCESS
Xcos trace:   propertyUpdated( 4 , BLOCK , NZCROSS ) : NO_CHANGES
Xcos trace:   propertyUpdated( 4 , BLOCK , NMODE ) : NO_CHANGES
Xcos trace:   propertyUpdated( 4 , BLOCK , EQUATIONS ) : NO_CHANGES
Xcos trace:   propertyUpdated( 4 , BLOCK , UID ) : NO_CHANGES
Xcos trace:   objectUnreferenced( 4 , BLOCK ) : 0
Xcos trace:   propertyUpdated( 4 , BLOCK , INTERFACE_FUNCTION ) : NO_CHANGES
diag = scicos_diagram();
Xcos info:    objectCreated( 6 , DIAGRAM )
Xcos trace:   objectReferenced( 6 , DIAGRAM ) : 1
Xcos trace:   propertyUpdated( 6 , DIAGRAM , TITLE ) : NO_CHANGES
Xcos trace:   propertyUpdated( 6 , DIAGRAM , PATH ) : NO_CHANGES
Xcos trace:   propertyUpdated( 6 , DIAGRAM , PROPERTIES ) : NO_CHANGES
Xcos trace:   propertyUpdated( 6 , DIAGRAM , PROPERTIES ) : NO_CHANGES
Xcos trace:   propertyUpdated( 6 , DIAGRAM , CONTEXT ) : NO_CHANGES
Xcos trace:   objectUnreferenced( 6 , DIAGRAM ) : 0
Xcos trace:   propertyUpdated( 6 , DIAGRAM , CHILDREN ) : NO_CHANGES
Xcos debug:   propertyUpdated( 6 , DIAGRAM , VERSION_NUMBER ) : SUCCESS
diag.objs(1) = Super1;
Xcos info:    objectCreated( 7 , BLOCK )
Xcos info:    objectCloned( 4 , 7 , BLOCK )
Xcos trace:   propertyUpdated( 7 , BLOCK , SIM_FUNCTION_API ) : NO_CHANGES
Xcos debug:   propertyUpdated( 7 , BLOCK , DESCRIPTION ) : SUCCESS
Xcos trace:   propertyUpdated( 7 , BLOCK , INTERFACE_FUNCTION ) : NO_CHANGES
Xcos debug:   propertyUpdated( 7 , BLOCK , SIM_FUNCTION_NAME ) : SUCCESS
Xcos debug:   propertyUpdated( 7 , BLOCK , SIM_BLOCKTYPE ) : SUCCESS
Xcos trace:   propertyUpdated( 7 , BLOCK , UID ) : NO_CHANGES
Xcos trace:   propertyUpdated( 7 , BLOCK , STYLE ) : NO_CHANGES
Xcos trace:   propertyUpdated( 7 , BLOCK , GEOMETRY ) : NO_CHANGES
Xcos trace:   propertyUpdated( 7 , BLOCK , EXPRS ) : NO_CHANGES
Xcos trace:   propertyUpdated( 7 , BLOCK , STATE ) : NO_CHANGES
Xcos trace:   propertyUpdated( 7 , BLOCK , DSTATE ) : NO_CHANGES
Xcos trace:   propertyUpdated( 7 , BLOCK , ODSTATE ) : NO_CHANGES
Xcos trace:   propertyUpdated( 7 , BLOCK , RPAR ) : NO_CHANGES
Xcos trace:   propertyUpdated( 7 , BLOCK , OPAR ) : NO_CHANGES
Xcos trace:   propertyUpdated( 7 , BLOCK , EQUATIONS ) : NO_CHANGES
Xcos trace:   propertyUpdated( 7 , BLOCK , SIM_DEP_UT ) : NO_CHANGES
Xcos trace:   propertyUpdated( 7 , BLOCK , NZCROSS ) : NO_CHANGES
Xcos trace:   propertyUpdated( 7 , BLOCK , NMODE ) : NO_CHANGES
Xcos trace:   propertyUpdated( 7 , BLOCK , IPAR ) : NO_CHANGES
Xcos trace:   propertyUpdated( 7 , BLOCK , COLOR ) : NO_CHANGES
Xcos trace:   propertyUpdated( 7 , BLOCK , CONTEXT ) : NO_CHANGES
Xcos trace:   propertyUpdated( 7 , BLOCK , PARENT_DIAGRAM ) : NO_CHANGES
Xcos trace:   propertyUpdated( 7 , BLOCK , INPUTS ) : NO_CHANGES
Xcos trace:   propertyUpdated( 7 , BLOCK , OUTPUTS ) : NO_CHANGES
Xcos trace:   propertyUpdated( 7 , BLOCK , EVENT_INPUTS ) : NO_CHANGES
Xcos trace:   propertyUpdated( 7 , BLOCK , EVENT_OUTPUTS ) : NO_CHANGES
Xcos trace:   propertyUpdated( 7 , BLOCK , PARENT_BLOCK ) : NO_CHANGES
Xcos info:    objectCreated( 8 , LINK )
Xcos info:    objectCloned( 5 , 8 , LINK )
Xcos trace:   propertyUpdated( 8 , LINK , COLOR ) : NO_CHANGES
Xcos trace:   propertyUpdated( 8 , LINK , KIND ) : NO_CHANGES
Xcos trace:   propertyUpdated( 8 , LINK , DESCRIPTION ) : NO_CHANGES
Xcos trace:   propertyUpdated( 8 , LINK , UID ) : NO_CHANGES
Xcos trace:   propertyUpdated( 8 , LINK , STYLE ) : NO_CHANGES
Xcos trace:   propertyUpdated( 8 , LINK , CONTROL_POINTS ) : NO_CHANGES
Xcos trace:   propertyUpdated( 8 , LINK , THICK ) : NO_CHANGES
Xcos trace:   propertyUpdated( 8 , LINK , PARENT_DIAGRAM ) : NO_CHANGES
Xcos debug:   propertyUpdated( 8 , LINK , PARENT_BLOCK ) : SUCCESS
Xcos trace:   propertyUpdated( 8 , LINK , SOURCE_PORT ) : NO_CHANGES
Xcos trace:   propertyUpdated( 8 , LINK , DESTINATION_PORT ) : NO_CHANGES
Xcos trace:   propertyUpdated( 8 , LINK , SOURCE_PORT ) : NO_CHANGES
Xcos trace:   propertyUpdated( 8 , LINK , DESTINATION_PORT ) : NO_CHANGES
Xcos debug:   propertyUpdated( 7 , BLOCK , CHILDREN ) : SUCCESS
Xcos trace:   objectReferenced( 7 , BLOCK ) : 1
Xcos debug:   propertyUpdated( 7 , BLOCK , PARENT_DIAGRAM ) : SUCCESS
Xcos trace:   propertyUpdated( 7 , BLOCK , PARENT_BLOCK ) : NO_CHANGES
Xcos debug:   propertyUpdated( 6 , DIAGRAM , CHILDREN ) : SUCCESS
Xcos trace:   objectUnreferenced( 7 , BLOCK ) : 0
diag.objs(1)
Xcos trace:   objectReferenced( 7 , BLOCK ) : 1
 ans  =
GUI     : 
Graphics: 
Xcos trace:   objectReferenced( 7 , BLOCK ) : 2
Xcos trace:   objectUnreferenced( 7 , BLOCK ) : 1
          orig = [0,0]
          sz = [20,20]
          exprs = []
          pin = []
          pout = []
          pein = []
          peout = []
          gr_i = []
          id = "Quat_Conj"
          in_implicit = []
          out_implicit = []
          in_style = ""
          out_style = ""
          in_label = ""
          out_label = ""
          style = ""
Model   : 
Xcos trace:   objectReferenced( 7 , BLOCK ) : 2
Xcos trace:   objectReferenced( 7 , BLOCK ) : 3
Xcos trace:   objectUnreferenced( 7 , BLOCK ) : 2
Xcos trace:   objectUnreferenced( 7 , BLOCK ) : 1
          super type: 0
          in = []
          in2 = []
          intyp = 1
          out = []
          out2 = []
          outtyp = 1
          evtin = []
          evtout = []
          state = []
          dstate = []
          odstate = list()
          rpar : SuperBlock
          ipar = []
          opar = list()
          blocktype = "h"
          firing = []
          dep_ut = [%f,%f]
          label = "Quat_Conj"
          nzcross = 0
          nmode = 0
          equations = list()
          uid = ""
diag.objs(1).model
Xcos trace:   objectReferenced( 7 , BLOCK ) : 2
Xcos trace:   objectReferenced( 7 , BLOCK ) : 3
Xcos trace:   objectReferenced( 7 , BLOCK ) : 4
Xcos trace:   objectUnreferenced( 7 , BLOCK ) : 3
Xcos trace:   objectUnreferenced( 7 , BLOCK ) : 2
Xcos trace:   objectUnreferenced( 7 , BLOCK ) : 1
 ans  =
super type: 0
Xcos trace:   objectReferenced( 7 , BLOCK ) : 2
Xcos trace:   objectUnreferenced( 7 , BLOCK ) : 1
Xcos trace:   objectReferenced( 8 , LINK ) : 1
Xcos trace:   objectUnreferenced( 8 , LINK ) : 0
in = []
in2 = []
intyp = 1
out = []
out2 = []
outtyp = 1
evtin = []
evtout = []
state = []
dstate = []
odstate = list()
rpar = mlist(["diagram","props","objs","version","contrib"],tlist(["params","wpar","title","tol","tf","context","void1","options","void2","void3","doc"],[600,450,0,0,600,450],["Quat_Conj";""],[0.000001,0.000001,1.000D-10,100001,0,1,0],30,[],[],tlist(["scsopt","3D","Background","Link","ID","Cmap"],list(%t,33),[8,1],[1,5],list([4,1,10,1],[4,1,2,1]),[0.8,0.8,0.8]),[],[],list()),list(mlist(["Link","xx","yy","id","thick","ct","from","to"],[],[],"",[0,0],[1,1],[2,1,0],[3,1,1])),"",list())
ipar = []
opar = list()
blocktype = "h"
firing = []
dep_ut = [%f,%f]
label = "Quat_Conj"
nzcross = 0
nmode = 0
equations = list()
uid = ""
diag.objs(1).model.rpar.objs(1)
Xcos trace:   objectReferenced( 7 , BLOCK ) : 2
Xcos trace:   objectReferenced( 7 , BLOCK ) : 3
Xcos trace:   objectReferenced( 7 , BLOCK ) : 4
Xcos trace:   objectUnreferenced( 7 , BLOCK ) : 3
Xcos trace:   objectUnreferenced( 7 , BLOCK ) : 2
Xcos trace:   objectReferenced( 8 , LINK ) : 1
Xcos trace:   objectUnreferenced( 7 , BLOCK ) : 1
Xcos trace:   objectUnreferenced( 7 , BLOCK ) : 0
 ans  =
Link    :
          xx: []
          yy: []
          id: 
          thick: 0 0
          ct: 1 1
          from: 2 1 0
          to: 3 1 1
Super2 = scicos_block(,..
model=scicos_model(sim="super",in=[],in2=[],intyp=1,out=[],out2=[],outtyp=[],evtin=[],evtout=[],state=[],dstate=[],odstate=list(),..
rpar=diag,..
ipar=[],opar=list(),blocktype="h",firing=[],dep_ut=[%f,%f],label="Quat_Conj",nzcross=0,nmode=0,equations=list())..
);
Xcos info:    objectCreated( 9 , BLOCK )
Xcos trace:   objectReferenced( 9 , BLOCK ) : 1
Xcos trace:   propertyUpdated( 9 , BLOCK , GEOMETRY ) : NO_CHANGES
Xcos trace:   propertyUpdated( 9 , BLOCK , GEOMETRY ) : NO_CHANGES
Xcos trace:   propertyUpdated( 9 , BLOCK , EXPRS ) : NO_CHANGES
Xcos trace:   propertyUpdated( 9 , BLOCK , DESCRIPTION ) : NO_CHANGES
Xcos trace:   propertyUpdated( 9 , BLOCK , STYLE ) : NO_CHANGES
Xcos trace:   objectUnreferenced( 9 , BLOCK ) : 0
Xcos trace:   objectReferenced( 9 , BLOCK ) : 1
Xcos debug:   propertyUpdated( 9 , BLOCK , SIM_FUNCTION_NAME ) : SUCCESS
Xcos trace:   propertyUpdated( 9 , BLOCK , SIM_FUNCTION_API ) : NO_CHANGES
Xcos trace:   propertyUpdated( 9 , BLOCK , STATE ) : NO_CHANGES
Xcos trace:   propertyUpdated( 9 , BLOCK , DSTATE ) : NO_CHANGES
Xcos trace:   propertyUpdated( 9 , BLOCK , ODSTATE ) : NO_CHANGES
Xcos trace:   objectReferenced( 9 , BLOCK ) : 2
Xcos trace:   objectReferenced( 7 , BLOCK ) : 1
Xcos info:    objectCreated( 10 , BLOCK )
Xcos info:    objectCloned( 7 , 10 , BLOCK )
Xcos trace:   propertyUpdated( 10 , BLOCK , SIM_FUNCTION_API ) : NO_CHANGES
Xcos debug:   propertyUpdated( 10 , BLOCK , DESCRIPTION ) : SUCCESS
Xcos trace:   propertyUpdated( 10 , BLOCK , INTERFACE_FUNCTION ) : NO_CHANGES
Xcos debug:   propertyUpdated( 10 , BLOCK , SIM_FUNCTION_NAME ) : SUCCESS
Xcos debug:   propertyUpdated( 10 , BLOCK , SIM_BLOCKTYPE ) : SUCCESS
Xcos trace:   propertyUpdated( 10 , BLOCK , UID ) : NO_CHANGES
Xcos trace:   propertyUpdated( 10 , BLOCK , STYLE ) : NO_CHANGES
Xcos trace:   propertyUpdated( 10 , BLOCK , GEOMETRY ) : NO_CHANGES
Xcos trace:   propertyUpdated( 10 , BLOCK , EXPRS ) : NO_CHANGES
Xcos trace:   propertyUpdated( 10 , BLOCK , STATE ) : NO_CHANGES
Xcos trace:   propertyUpdated( 10 , BLOCK , DSTATE ) : NO_CHANGES
Xcos trace:   propertyUpdated( 10 , BLOCK , ODSTATE ) : NO_CHANGES
Xcos trace:   propertyUpdated( 10 , BLOCK , RPAR ) : NO_CHANGES
Xcos trace:   propertyUpdated( 10 , BLOCK , OPAR ) : NO_CHANGES
Xcos trace:   propertyUpdated( 10 , BLOCK , EQUATIONS ) : NO_CHANGES
Xcos trace:   propertyUpdated( 10 , BLOCK , SIM_DEP_UT ) : NO_CHANGES
Xcos trace:   propertyUpdated( 10 , BLOCK , NZCROSS ) : NO_CHANGES
Xcos trace:   propertyUpdated( 10 , BLOCK , NMODE ) : NO_CHANGES
Xcos trace:   propertyUpdated( 10 , BLOCK , IPAR ) : NO_CHANGES
Xcos trace:   propertyUpdated( 10 , BLOCK , COLOR ) : NO_CHANGES
Xcos trace:   propertyUpdated( 10 , BLOCK , CONTEXT ) : NO_CHANGES
Xcos trace:   propertyUpdated( 10 , BLOCK , PARENT_DIAGRAM ) : NO_CHANGES
Xcos trace:   propertyUpdated( 10 , BLOCK , INPUTS ) : NO_CHANGES
Xcos trace:   propertyUpdated( 10 , BLOCK , OUTPUTS ) : NO_CHANGES
Xcos trace:   propertyUpdated( 10 , BLOCK , EVENT_INPUTS ) : NO_CHANGES
Xcos trace:   propertyUpdated( 10 , BLOCK , EVENT_OUTPUTS ) : NO_CHANGES
Xcos trace:   propertyUpdated( 10 , BLOCK , PARENT_BLOCK ) : NO_CHANGES
Xcos info:    objectCreated( 11 , LINK )
Xcos info:    objectCloned( 8 , 11 , LINK )
Xcos trace:   propertyUpdated( 11 , LINK , COLOR ) : NO_CHANGES
Xcos trace:   propertyUpdated( 11 , LINK , KIND ) : NO_CHANGES
Xcos trace:   propertyUpdated( 11 , LINK , DESCRIPTION ) : NO_CHANGES
Xcos trace:   propertyUpdated( 11 , LINK , UID ) : NO_CHANGES
Xcos trace:   propertyUpdated( 11 , LINK , STYLE ) : NO_CHANGES
Xcos trace:   propertyUpdated( 11 , LINK , CONTROL_POINTS ) : NO_CHANGES
Xcos trace:   propertyUpdated( 11 , LINK , THICK ) : NO_CHANGES
Xcos trace:   propertyUpdated( 11 , LINK , PARENT_DIAGRAM ) : NO_CHANGES
Xcos debug:   propertyUpdated( 11 , LINK , PARENT_BLOCK ) : SUCCESS
Xcos trace:   propertyUpdated( 11 , LINK , SOURCE_PORT ) : NO_CHANGES
Xcos trace:   propertyUpdated( 11 , LINK , DESTINATION_PORT ) : NO_CHANGES
Xcos trace:   propertyUpdated( 11 , LINK , SOURCE_PORT ) : NO_CHANGES
Xcos trace:   propertyUpdated( 11 , LINK , DESTINATION_PORT ) : NO_CHANGES
Xcos debug:   propertyUpdated( 10 , BLOCK , CHILDREN ) : SUCCESS
Xcos trace:   objectReferenced( 10 , BLOCK ) : 1
Xcos trace:   propertyUpdated( 10 , BLOCK , PARENT_DIAGRAM ) : NO_CHANGES
Xcos debug:   propertyUpdated( 10 , BLOCK , PARENT_BLOCK ) : SUCCESS
Xcos debug:   propertyUpdated( 9 , BLOCK , CHILDREN ) : SUCCESS
Xcos trace:   objectUnreferenced( 10 , BLOCK ) : 0
Xcos trace:   objectUnreferenced( 7 , BLOCK ) : 0
Xcos trace:   objectReferenced( 6 , DIAGRAM ) : 1
Xcos trace:   objectUnreferenced( 6 , DIAGRAM ) : 0
Xcos trace:   objectReferenced( 9 , BLOCK ) : 3
Xcos debug:   propertyUpdated( 9 , BLOCK , DESCRIPTION ) : SUCCESS
Xcos trace:   propertyUpdated( 9 , BLOCK , CONTEXT ) : NO_CHANGES
Xcos trace:   objectUnreferenced( 9 , BLOCK ) : 2
Xcos trace:   objectUnreferenced( 9 , BLOCK ) : 1
Xcos trace:   propertyUpdated( 9 , BLOCK , IPAR ) : NO_CHANGES
Xcos trace:   propertyUpdated( 9 , BLOCK , OPAR ) : NO_CHANGES
Xcos debug:   propertyUpdated( 9 , BLOCK , SIM_BLOCKTYPE ) : SUCCESS
Xcos trace:   propertyUpdated( 9 , BLOCK , SIM_DEP_UT ) : NO_CHANGES
Xcos debug:   propertyUpdated( 9 , BLOCK , DESCRIPTION ) : SUCCESS
Xcos trace:   propertyUpdated( 9 , BLOCK , NZCROSS ) : NO_CHANGES
Xcos trace:   propertyUpdated( 9 , BLOCK , NMODE ) : NO_CHANGES
Xcos trace:   propertyUpdated( 9 , BLOCK , EQUATIONS ) : NO_CHANGES
Xcos trace:   propertyUpdated( 9 , BLOCK , UID ) : NO_CHANGES
Xcos trace:   objectUnreferenced( 9 , BLOCK ) : 0
Xcos trace:   propertyUpdated( 9 , BLOCK , INTERFACE_FUNCTION ) : NO_CHANGES
Super2.model
Xcos trace:   objectReferenced( 9 , BLOCK ) : 1
Xcos trace:   objectReferenced( 9 , BLOCK ) : 2
Xcos trace:   objectUnreferenced( 9 , BLOCK ) : 1
Xcos trace:   objectUnreferenced( 8 , LINK ) : 0
 ans  =
super type: 0
Xcos trace:   objectReferenced( 9 , BLOCK ) : 2
Xcos trace:   objectUnreferenced( 9 , BLOCK ) : 1
Xcos trace:   objectReferenced( 10 , BLOCK ) : 1
Xcos trace:   objectReferenced( 10 , BLOCK ) : 2
Xcos trace:   objectUnreferenced( 10 , BLOCK ) : 1
Xcos trace:   objectReferenced( 10 , BLOCK ) : 2
Xcos trace:   objectReferenced( 10 , BLOCK ) : 3
Xcos trace:   objectUnreferenced( 10 , BLOCK ) : 2
Xcos trace:   objectUnreferenced( 10 , BLOCK ) : 1
Xcos trace:   objectReferenced( 10 , BLOCK ) : 2
Xcos trace:   objectUnreferenced( 10 , BLOCK ) : 1
Xcos trace:   objectReferenced( 11 , LINK ) : 1
Xcos trace:   objectUnreferenced( 11 , LINK ) : 0
in = []
in2 = []
intyp = 1
out = []
out2 = []
outtyp = 1
evtin = []
evtout = []
state = []
dstate = []
odstate = list()
rpar = mlist(["diagram","props","objs","version","contrib"],tlist(["params","wpar","title","tol","tf","context","void1","options","void2","void3","doc"],[600,450,0,0,600,450],["Quat_Conj";""],[],[],[],[],tlist(["scsopt","3D","Background","Link","ID","Cmap"],list(%t,33),[8,1],[1,5],list([4,1,10,1],[4,1,2,1]),[0.8,0.8,0.8]),[],[],list()),list(mlist(["Block","graphics","model","gui","doc"],mlist(["graphics","orig","sz","exprs","pin","pout","pein","peout","gr_i","id","in_implicit","out_implicit","in_style","out_style","in_label","out_label","style"],[0,0],[20,20],[],[],[],[],[],[],"Quat_Conj",[],[],"","","","",""),mlist(["model","sim","in","in2","intyp","out","out2","outtyp","evtin","evtout","state","dstate","odstate","rpar","ipar","opar","blocktype","firing","dep_ut","label","nzcross","nmode","equations","uid"],"super",[],[],1,[],[],1,[],[],[],[],list(),mlist(["diagram","props","objs","version","contrib"],tlist(["params","wpar","title","tol","tf","context","void1","options","void2","void3","doc"],[600,450,0,0,600,450],["Quat_Conj";""],[],[],[],[],tlist(["scsopt","3D","Background","Link","ID","Cmap"],list(%t,33),[8,1],[1,5],list([4,1,10,1],[4,1,2,1]),[0.8,0.8,0.8]),[],[],list()),list(mlist(["Link","xx","yy","id","thick","ct","from","to"],[],[],"",[0,0],[1,1],[2,1,0],[3,1,1])),"",list()),[],list(),"h",[],[%f,%f],"Quat_Conj",0,0,list(),""),"",list())),"",list())
ipar = []
opar = list()
blocktype = "h"
firing = []
dep_ut = [%f,%f]
label = "Quat_Conj"
nzcross = 0
nmode = 0
equations = list()
uid = ""
Xcos trace:   objectUnreferenced( 10 , BLOCK ) : 0
Super2.model.rpar
Xcos trace:   objectReferenced( 9 , BLOCK ) : 2
Xcos trace:   objectReferenced( 9 , BLOCK ) : 3
Xcos trace:   objectUnreferenced( 9 , BLOCK ) : 2
Xcos trace:   objectUnreferenced( 9 , BLOCK ) : 1
 ans  =
Xcos trace:   objectReferenced( 9 , BLOCK ) : 2
Xcos trace:   objectUnreferenced( 9 , BLOCK ) : 1
wpar = [600,450,0,0,600,450]
title = ["Quat_Conj";""]
tol = []
tf = []
context = []
void1 = []
options = tlist(["scsopt","3D","Background","Link","ID","Cmap"],list(%t,33),[8,1],[1,5],list([4,1,10,1],[4,1,2,1]),[0.8,0.8,0.8])
void2 = []
void3 = []
doc = list()
Xcos trace:   objectReferenced( 10 , BLOCK ) : 1
1     
Xcos trace:   objectUnreferenced( 10 , BLOCK ) : 0
Super2.model.rpar.objs(1)
Xcos trace:   objectReferenced( 9 , BLOCK ) : 2
Xcos trace:   objectReferenced( 9 , BLOCK ) : 3
Xcos trace:   objectUnreferenced( 9 , BLOCK ) : 2
Xcos trace:   objectReferenced( 10 , BLOCK ) : 1
Xcos trace:   objectUnreferenced( 9 , BLOCK ) : 1
Xcos trace:   objectUnreferenced( 9 , BLOCK ) : 0
 ans  =
GUI     : 
Graphics: 
Xcos trace:   objectReferenced( 10 , BLOCK ) : 2
Xcos trace:   objectUnreferenced( 10 , BLOCK ) : 1
          orig = [0,0]
          sz = [20,20]
          exprs = []
          pin = []
          pout = []
          pein = []
          peout = []
          gr_i = []
          id = "Quat_Conj"
          in_implicit = []
          out_implicit = []
          in_style = ""
          out_style = ""
          in_label = ""
          out_label = ""
          style = ""
Model   : 
Xcos trace:   objectReferenced( 10 , BLOCK ) : 2
Xcos trace:   objectReferenced( 10 , BLOCK ) : 3
Xcos trace:   objectUnreferenced( 10 , BLOCK ) : 2
Xcos trace:   objectUnreferenced( 10 , BLOCK ) : 1
          super type: 0
          in = []
          in2 = []
          intyp = 1
          out = []
          out2 = []
          outtyp = 1
          evtin = []
          evtout = []
          state = []
          dstate = []
          odstate = list()
          rpar : SuperBlock
          ipar = []
          opar = list()
          blocktype = "h"
          firing = []
          dep_ut = [%f,%f]
          label = "Quat_Conj"
          nzcross = 0
          nmode = 0
          equations = list()
          uid = ""
Super2.model.rpar.objs(1).model
Xcos trace:   objectReferenced( 9 , BLOCK ) : 1
Xcos trace:   objectReferenced( 9 , BLOCK ) : 2
Xcos trace:   objectUnreferenced( 9 , BLOCK ) : 1
Xcos trace:   objectReferenced( 10 , BLOCK ) : 2
Xcos trace:   objectUnreferenced( 9 , BLOCK ) : 0
Xcos trace:   objectReferenced( 10 , BLOCK ) : 3
Xcos trace:   objectReferenced( 10 , BLOCK ) : 4
Xcos trace:   objectUnreferenced( 10 , BLOCK ) : 3
Xcos trace:   objectUnreferenced( 10 , BLOCK ) : 2
Xcos trace:   objectUnreferenced( 10 , BLOCK ) : 1
 ans  =
super type: 0
Xcos trace:   objectReferenced( 10 , BLOCK ) : 2
Xcos trace:   objectUnreferenced( 10 , BLOCK ) : 1
Xcos trace:   objectReferenced( 11 , LINK ) : 1
Xcos trace:   objectUnreferenced( 11 , LINK ) : 0
in = []
in2 = []
intyp = 1
out = []
out2 = []
outtyp = 1
evtin = []
evtout = []
state = []
dstate = []
odstate = list()
rpar = mlist(["diagram","props","objs","version","contrib"],tlist(["params","wpar","title","tol","tf","context","void1","options","void2","void3","doc"],[600,450,0,0,600,450],["Quat_Conj";""],[],[],[],[],tlist(["scsopt","3D","Background","Link","ID","Cmap"],list(%t,33),[8,1],[1,5],list([4,1,10,1],[4,1,2,1]),[0.8,0.8,0.8]),[],[],list()),list(mlist(["Link","xx","yy","id","thick","ct","from","to"],[],[],"",[0,0],[1,1],[2,1,0],[3,1,1])),"",list())
ipar = []
opar = list()
blocktype = "h"
firing = []
dep_ut = [%f,%f]
label = "Quat_Conj"
nzcross = 0
nmode = 0
equations = list()
uid = ""
Super2.model.rpar.objs(1).model.rpar
Xcos trace:   objectReferenced( 9 , BLOCK ) : 1
Xcos trace:   objectReferenced( 9 , BLOCK ) : 2
Xcos trace:   objectUnreferenced( 9 , BLOCK ) : 1
Xcos trace:   objectReferenced( 10 , BLOCK ) : 2
Xcos trace:   objectUnreferenced( 9 , BLOCK ) : 0
Xcos trace:   objectReferenced( 10 , BLOCK ) : 3
Xcos trace:   objectReferenced( 10 , BLOCK ) : 4
Xcos trace:   objectUnreferenced( 10 , BLOCK ) : 3
Xcos trace:   objectUnreferenced( 10 , BLOCK ) : 2
Xcos trace:   objectUnreferenced( 10 , BLOCK ) : 1
 ans  =
Xcos trace:   objectReferenced( 10 , BLOCK ) : 2
Xcos trace:   objectUnreferenced( 10 , BLOCK ) : 1
wpar = [600,450,0,0,600,450]
title = ["Quat_Conj";""]
tol = []
tf = []
context = []
void1 = []
options = tlist(["scsopt","3D","Background","Link","ID","Cmap"],list(%t,33),[8,1],[1,5],list([4,1,10,1],[4,1,2,1]),[0.8,0.8,0.8])
void2 = []
void3 = []
doc = list()
Xcos trace:   objectReferenced( 11 , LINK ) : 1
Xcos trace:   objectUnreferenced( 11 , LINK ) : 0
Super2.model.rpar.objs(1).model.rpar.objs(1)
Xcos trace:   objectReferenced( 9 , BLOCK ) : 1
Xcos trace:   objectReferenced( 9 , BLOCK ) : 2
Xcos trace:   objectUnreferenced( 9 , BLOCK ) : 1
Xcos trace:   objectReferenced( 10 , BLOCK ) : 2
Xcos trace:   objectUnreferenced( 9 , BLOCK ) : 0
Xcos trace:   objectReferenced( 10 , BLOCK ) : 3
Xcos trace:   objectReferenced( 10 , BLOCK ) : 4
Xcos trace:   objectUnreferenced( 10 , BLOCK ) : 3
Xcos trace:   objectUnreferenced( 10 , BLOCK ) : 2
Xcos trace:   objectReferenced( 11 , LINK ) : 1
Xcos trace:   objectUnreferenced( 10 , BLOCK ) : 1
Xcos trace:   objectUnreferenced( 10 , BLOCK ) : 0
 ans  =
Link    :
          xx: []
          yy: []
          id: 
          thick: 0 0
          ct: 1 1
          from: 2 1 0
          to: 3 1 1
assert_checkequal(Super2.model.rpar.objs(1).model.rpar.objs(1).from, [2 1 0]);
Xcos trace:   objectReferenced( 9 , BLOCK ) : 1
Xcos trace:   objectReferenced( 9 , BLOCK ) : 2
Xcos trace:   objectUnreferenced( 9 , BLOCK ) : 1
Xcos trace:   objectReferenced( 10 , BLOCK ) : 1
Xcos trace:   objectUnreferenced( 9 , BLOCK ) : 0
Xcos trace:   objectReferenced( 10 , BLOCK ) : 2
Xcos trace:   objectReferenced( 10 , BLOCK ) : 3
Xcos trace:   objectUnreferenced( 10 , BLOCK ) : 2
Xcos trace:   objectUnreferenced( 10 , BLOCK ) : 1
Xcos trace:   objectReferenced( 11 , LINK ) : 2
Xcos trace:   objectUnreferenced( 10 , BLOCK ) : 0
Xcos trace:   objectUnreferenced( 11 , LINK ) : 1
Xcos trace:   objectUnreferenced( 11 , LINK ) : 0
assert_checkequal(Super2.model.rpar.objs(1).model.rpar.objs(1).to,   [3 1 1]);
Xcos trace:   objectReferenced( 9 , BLOCK ) : 1
Xcos trace:   objectReferenced( 9 , BLOCK ) : 2
Xcos trace:   objectUnreferenced( 9 , BLOCK ) : 1
Xcos trace:   objectReferenced( 10 , BLOCK ) : 1
Xcos trace:   objectUnreferenced( 9 , BLOCK ) : 0
Xcos trace:   objectReferenced( 10 , BLOCK ) : 2
Xcos trace:   objectReferenced( 10 , BLOCK ) : 3
Xcos trace:   objectUnreferenced( 10 , BLOCK ) : 2
Xcos trace:   objectUnreferenced( 10 , BLOCK ) : 1
Xcos trace:   objectReferenced( 11 , LINK ) : 1
Xcos trace:   objectUnreferenced( 10 , BLOCK ) : 0
Xcos trace:   objectUnreferenced( 11 , LINK ) : 0
// Check that all the model items are freed
clear
Xcos debug:   propertyUpdated( 4 , BLOCK , CHILDREN ) : SUCCESS
Xcos info:    objectDeleted( 5 , LINK )
Xcos info:    objectDeleted( 4 , BLOCK )
Xcos debug:   propertyUpdated( 9 , BLOCK , CHILDREN ) : SUCCESS
Xcos debug:   propertyUpdated( 10 , BLOCK , CHILDREN ) : SUCCESS
Xcos info:    objectDeleted( 11 , LINK )
Xcos info:    objectDeleted( 10 , BLOCK )
Xcos info:    objectDeleted( 9 , BLOCK )
Xcos debug:   propertyUpdated( 7 , BLOCK , PARENT_DIAGRAM ) : SUCCESS
Xcos debug:   propertyUpdated( 7 , BLOCK , CHILDREN ) : SUCCESS
Xcos info:    objectDeleted( 8 , LINK )
Xcos info:    objectDeleted( 7 , BLOCK )
Xcos info:    objectDeleted( 6 , DIAGRAM )
Xcos info:    objectDeleted( 1 , LINK )
Xcos debug:   propertyUpdated( 3 , LINK , PARENT_DIAGRAM ) : SUCCESS
Xcos info:    objectDeleted( 3 , LINK )
Xcos info:    objectDeleted( 2 , DIAGRAM )
