// =============================================================================
// Scilab ( https://www.scilab.org/ ) - This file is part of Scilab
// Copyright (C) 2009 - DIGITEO - Pierre MARECHAL <pierre.marechal@scilab.org>
//
//  This file is distributed under the same license as the Scilab package.
// =============================================================================
// <-- CLI SHELL MODE -->
// <-- ENGLISH IMPOSED -->
load("SCI/modules/atoms/macros/atoms_internals/lib");
exec("SCI/modules/atoms/tests/unit_tests/atomsTestUtils.sce");
// If previous test did not end properly, restore, else backup config file
atomsRestoreConfig(%T);
atomsSaveConfig();
// Do not use the autoload system
atomsSetConfig("autoloadAddAfterInstall","False");
atomsSetConfig("Verbose" ,"False");
// Force config
atomsSetConfig("autoloadAddAfterInstall", "False");
atomsSetConfig("Verbose", "False");
atomsSetConfig("offLine", "False");
atomsRepositoryReset();
Scanning repository file://TMPDIR/sample ... Done
// Load the 1st scenario : See scene10.test.atoms.scilab.org.txt
// =============================================================================
atomsLoadTestScene("scene10");
Scanning repository file://TMPDIR/scene10 ... Done
// Install the toolbox 3
// =============================================================================
atomsInstall("toolbox_3V6");
atomsShow("toolbox_3V6");
                Package : toolbox_3V6
                  Title : Toolbox Test 3 for Scilab
                Summary : I'm Toolbox 3 1.0 for Scilab
                Version : 1.0-1
                 Depend : toolbox_2V6 (>= 2.0)
          Category(ies) : AtomsTest
              Author(s) : Me
          Maintainer(s) : You
                 Entity : MyMajorCompany
                WebSite : 
                License : Test
         Scilab Version : >= 5.0
                 Status : Installed
Automatically Installed : no
      Install Directory : SCI\contrib\toolbox_3V6\1.0-1
            Description : 
atomsRemove("toolbox_3V6");
// Restore original values
// =============================================================================
atomsRestoreConfig(%T);
atomsRepositorySetOfl(mgetl(SCI+"/modules/atoms/tests/unit_tests/repositories.orig"));
Scanning repository https://atoms.scilab.org/2023.1/TOOLBOXES/64 ... Done
