0-LSodar_1.png=1317221b1234f688e6595e11a3792d1b
1-CVode_1.png=ad184563bd94c9741b096243507b9520
2-Runge-Kutta_1.png=4b7e473123201abb90791c2fc8b00d0f
3-Dormand-Prince_1.png=f03f6156c4442805827ba389af1f314e
4-ImplicitRK_1.png=3baa7637cb0be94076c6e06b7ae34991
5-CrankNicolson_1.png=e460c3c5dcdf57152d190386d91eac1d
6-IDA_en_US_1.png=056248160f1b98de82bccc2bbd1850f5
6-IDA_fr_FR_1.png=c0c4c44ea933b98ca3a7111ff32c5066
6-IDA_ja_JP_1.png=056248160f1b98de82bccc2bbd1850f5
6-IDA_pt_BR_1.png=056248160f1b98de82bccc2bbd1850f5
6-IDA_ru_RU_1.png=056248160f1b98de82bccc2bbd1850f5
7-DDaskr_en_US_1.png=f902022bda23b79ce574a425967e0b88
7-DDaskr_fr_FR_1.png=e7b1c5084ec12016ceaeddc61facfc5f
7-DDaskr_ja_JP_1.png=f902022bda23b79ce574a425967e0b88
7-DDaskr_pt_BR_1.png=f902022bda23b79ce574a425967e0b88
7-DDaskr_ru_RU_1.png=f902022bda23b79ce574a425967e0b88
8-Rootfinding_1.png=e1f0073e6015be65dc8c2419c8e463ea
9-Comparisons_1.png=1317221b1234f688e6595e11a3792d1b
9-Comparisons_2.png=af6502f90edbd9b38543af88fe5f38f3
9-Comparisons_3.png=f0a5c1ac73fbad1886c26a1175dded0f
9-Comparisons_4.png=88f684efd9b8fd70dac03a02a05313c7
9-Comparisons_5.png=74f85e2dc70a3f4c64d83a34c0f4e996
ABS_VALUE_1.png=14a5f86525c3b2d00b2211899dbff9ca
CLKINV_f_1.png=22169f7e0dbbd153cbba726152fa71b0
CLKINV_f_fr_FR_1.png=654e6e0715029ba9b26b11d8b8f89026
CLKOUTV_f_1.png=669b61ab57b262990f0ac93c38ea278e
CLKOUTV_f_fr_FR_1.png=169efcc5f561e5ebecffd0b89758090a
CLOCK_c_1.png=f16a47b46407e6d4662a5d0b3a90ed25
CLSS_1.png=6e6fe1f3eb8bb00d2550d56b6db20aa1
Counter_1.png=a88328a6ccb0eccd4ed8bf4a5bbb82ee
DEADBAND_1.png=20a32eccd368a2c1db61d29c84129eff
DEADBAND_fr_FR_1.png=1d45f2e6ad98c824be4205cb4f5ea1e1
DELAYV_f_1.png=f0c432cadcd045273269e52b87199ec7
DELAY_f_1.png=6965e321be950bc9529fc67c3177d0a7
DELAY_f_2.png=0b10b9eb56f4f302b40722fc37f90152
DELAY_f_fr_FR_1.png=0c3059f389f1c116fb8149b96baa3817
DERIV_1.png=c9f8cd048fb9c2d0f875e7cc783767cb
DLATCH_1.png=7ec2ce7f1b895e38e22af86c75810c7b
DLATCH_fr_FR_1.png=01fb9aa73f5b67deb46db79159a36bc1
DOLLAR_f_1.png=0b10b9eb56f4f302b40722fc37f90152
EXPRESSION_1.png=d29bf3b5d25b1e2250c459aaed1a7774
GENSIN_f_1.png=e4e9107e33977bc2ec15c56eda72b817
GENSQR_f_1.png=5d1882efbb97cbba3134b38ece4a3669
Graphics_1.png=27c8486b418fbb7c6824eed71d033448
Graphics_10.png=f3fb91c58fe1342f76461c2bd4f43af3
Graphics_11.png=2a3b1dcd31d5cb054964f147c6676168
Graphics_12.png=083ad54aee8bee439a11c19199df4d57
Graphics_13.png=022e946ae43362626173962583ba2c75
Graphics_14.png=6735304861cac3a527410d9fca7acdbf
Graphics_15.png=4db104cec73db5309f073b24c2d740e1
Graphics_16.png=48a5ce7ae83e9764fa8285fb1b25b4f9
Graphics_17.png=f2eddb04d3bcde0e1b98decc8a32c3d1
Graphics_18.png=fb426fe907194095989682f8c1c4b477
Graphics_19.png=3039a9134c31453b49ff23776a4e6abf
Graphics_2.png=ca7d6e343da4cb84c5550b19b5111a5e
Graphics_20.png=e95387c52bc0f1f2bfc674b62c9bb537
Graphics_21.png=1769acb58167f96070f6c71dcd54cbf2
Graphics_22.png=c6b390df4f9b9e5ff3db3f891f1e5dce
Graphics_23.png=90067203ae72d8ba7f61061a17f7d016
Graphics_24.png=02e80dc6ec334a5caf5b2c918e68bad3
Graphics_25.png=4bc6636c30fd29609f4bd77bfeaea661
Graphics_26.png=f81c4cf83b99442956c35722e86ec478
Graphics_27.png=7fe04f65bcbeb65eef5f90b3759be02e
Graphics_28.png=87ec396c51a7cc6aafb148e1aa5f9256
Graphics_3.png=9d4c072a9f27f8f0e07f7d098ee533ec
Graphics_30.png=26826b399f567100ed0118a54c896b5a
Graphics_35.png=76950c3a78d543018ca046b7e5709d88
Graphics_4.png=ca17ee46fae89a343407d090111051b5
Graphics_5.png=e830cf073e36fb2c95cf85a9eee02c52
Graphics_6.png=82170d2a412a217cfb313017bbec8f7f
Graphics_7.png=a5dddbe55ffd41e86ea4664a5d58cb4a
Graphics_8.png=85bdf268d4455ec7852e0b60d76126b2
Graphics_9.png=cf9d9d7863400326039f6da3b814cec7
Graphics_en_US_29.png=67f6ae9c0d36df93eb50e514746aac13
Graphics_en_US_31.png=caffc3a1e808e6c77f4b3507ccf2244d
Graphics_en_US_32.png=2297699ec06e47b2fe0a18a86fd34c29
Graphics_en_US_33.png=6ffc4cdec09ab46a1e5d4ae9fc119fc9
Graphics_en_US_34.png=415eb9aa50045f403f03bf90418a60da
Graphics_en_US_36.png=949d08ca0d73f015692fe34327e6f479
Graphics_en_US_37.png=472c77f8a7f56a9ecded78b1cb041139
Graphics_fr_FR_29.png=3180bb3d29988b52f347890159d61062
Graphics_fr_FR_31.png=caffc3a1e808e6c77f4b3507ccf2244d
Graphics_fr_FR_32.png=2297699ec06e47b2fe0a18a86fd34c29
Graphics_fr_FR_33.png=6ffc4cdec09ab46a1e5d4ae9fc119fc9
Graphics_fr_FR_34.png=415eb9aa50045f403f03bf90418a60da
Graphics_fr_FR_36.png=949d08ca0d73f015692fe34327e6f479
Graphics_fr_FR_37.png=472c77f8a7f56a9ecded78b1cb041139
Graphics_ja_JP_29.png=67f6ae9c0d36df93eb50e514746aac13
Graphics_ja_JP_31.png=caffc3a1e808e6c77f4b3507ccf2244d
Graphics_ja_JP_32.png=2297699ec06e47b2fe0a18a86fd34c29
Graphics_ja_JP_33.png=6ffc4cdec09ab46a1e5d4ae9fc119fc9
Graphics_ja_JP_34.png=415eb9aa50045f403f03bf90418a60da
Graphics_ja_JP_36.png=949d08ca0d73f015692fe34327e6f479
Graphics_ja_JP_37.png=472c77f8a7f56a9ecded78b1cb041139
Graphics_pt_BR_29.png=67f6ae9c0d36df93eb50e514746aac13
Graphics_pt_BR_31.png=caffc3a1e808e6c77f4b3507ccf2244d
Graphics_pt_BR_32.png=2297699ec06e47b2fe0a18a86fd34c29
Graphics_pt_BR_33.png=6ffc4cdec09ab46a1e5d4ae9fc119fc9
Graphics_pt_BR_34.png=415eb9aa50045f403f03bf90418a60da
Graphics_pt_BR_36.png=949d08ca0d73f015692fe34327e6f479
Graphics_pt_BR_37.png=472c77f8a7f56a9ecded78b1cb041139
Graphics_ru_RU_29.png=340da0d425ed4d7cfd9edce7510846db
Graphics_ru_RU_31.png=caffc3a1e808e6c77f4b3507ccf2244d
Graphics_ru_RU_32.png=2297699ec06e47b2fe0a18a86fd34c29
Graphics_ru_RU_33.png=6ffc4cdec09ab46a1e5d4ae9fc119fc9
Graphics_ru_RU_34.png=415eb9aa50045f403f03bf90418a60da
Graphics_ru_RU_36.png=949d08ca0d73f015692fe34327e6f479
Graphics_ru_RU_37.png=472c77f8a7f56a9ecded78b1cb041139
INIMPL_f_1.png=abac7044fea3fc1a4f989661cfc42391
INIMPL_f_fr_FR_1.png=83eb32af09f9e2231acc98c36b82dce2
INTEGRAL_m_1.png=819a0959f064d7afdfb7cc858016a945
INTEGRAL_m_2.png=8ac71675d74bdfb8aa5a5b79397749d3
INTRPLBLK_f_1.png=33cb18a7088876691af4f5917a228ae0
IN_f_1.png=14ebefc5c6f0a4168285be7f53de873e
IN_f_fr_FR_1.png=faf470b9c45b11cf1a37736304175116
JKFLIPFLOP_1.png=41633bba65cdd898d6d40657e606618f
JKFLIPFLOP_fr_FR_1.png=12520fcc860ddc21378285d090a81964
LOGIC_1.png=fedbff23681192420b1d1b2780d716a3
LOGIC_fr_FR_1.png=61b39bb2fa0f137d7cdc7f857f1e1de9
LineSpec_1.png=3865808691b21c492ceb231a78009863
LineSpec_2.png=a06fa74995bbeb13d6486a51c45e05a3
LineSpec_3.png=0944c239bd89a7e1f5d21705c19c1fba
LineSpec_4.png=57732b0000bb78016145a6d579836134
M_SWITCH_1.png=bddadf304806390eec7355e8068307b6
Matplot1_1.png=d6a47166ab86e17add7e33932c1c75e0
Matplot_1.png=d64708ebf99438b7fc27b1c4e1926050
Matplot_2.png=b7b8694b84bef82f90933032af005ad9
Matplot_properties_1.png=654ebd6a5dc506095114aea8aa6d61d2
Modulo_Count_1.png=fe92d3f9f46d41fdef932dbbe062073a
OUTIMPL_f_1.png=aa84fd3d40f5524d09bcc978095e7aba
OUTIMPL_f_fr_FR_1.png=321772e8e951cf2977ce7a7ce6dd714e
OUT_f_1.png=b8152428f0292e0ebee5182e015dd47b
OUT_f_fr_FR_1.png=a59977ac1c9919b12b6d10f9b178aa12
PID_1.png=8843194ddcc121e2029098a2cd9fd64b
PID_2.png=ca84f21c8c54b33b1813441eec8f9f8f
PID_3.png=388ad02b0483aeda88a8b41dcf37ef5c
PlotSparse_1.png=b58f1a44cd131e85df279e2e3b3b7667
QUANT_f_1.png=c2543a4ecacb4e8006e27b39de01d730
QUANT_f_2.png=d014d30ed3d0745cc91b3cda699dbb14
RAMP_1.png=c23fa5d3551bbd0d62ed522a383f858b
REGISTER_1.png=0b10b9eb56f4f302b40722fc37f90152
SAWTOOTH_f_1.png=10ee1db52ca7bf5c9a88f6af721493a6
SCALE_CSCOPE_1.png=99e0ba70bb8d2c34aec7555986b6b518
SRFLIPFLOP_1.png=bf5bf1af128d883fe210b34b77108187
SRFLIPFLOP_fr_FR_1.png=66fae8781f8aff2688d19345715c229d
STEP_FUNCTION_1.png=a0f3c8ffdd4693291dc1c322c9a02fc5
STEP_FUNCTION_2.png=18359b7fac7dc5a8a2b2620d946b799d
Sfgrayplot_1.png=f3fb91c58fe1342f76461c2bd4f43af3
Sfgrayplot_2.png=b5139a9e5e0fd480bbafa10a88be5787
Sfgrayplot_3.png=62dfa0f80a4796b2bb3f49b0c869c5cf
Sfgrayplot_en_US_4.png=5ed6f3ce5c25c81f046e7359d9bc6e7d
Sfgrayplot_fr_FR_4.png=5ed6f3ce5c25c81f046e7359d9bc6e7d
Sfgrayplot_ja_JP_4.png=5ed6f3ce5c25c81f046e7359d9bc6e7d
Sfgrayplot_pt_BR_4.png=c985dda5076316ab30dfb721aa632eb8
Sfgrayplot_ru_RU_4.png=379972a821d7aa2a6cd9e7c0cd0c30aa
Sgrayplot_1.png=a030fe22e004d0b65f1c81ba29dbab54
Sgrayplot_2.png=e692f0b328fbc704e6d55565f5ba9b2d
Sgrayplot_3.png=47a5069d75ec6f83ed08c8c2a601675b
VARIABLE_DELAY_1.png=dbe9f368a724f06454aa03acb698e295
VARIABLE_DELAY_fr_FR_1.png=80162a521eb442cba349151f8412c297
_LaTeX_0-LSodar.xml_1.png=e130ce3936e3d90b95bf43660f09cb4e
_LaTeX_1-CVode.xml_1.png=e130ce3936e3d90b95bf43660f09cb4e
_LaTeX_1-CVode.xml_2.png=d7c48296c566102dc6b62253742d996d
_LaTeX_1-CVode.xml_4.png=362c2ce027c22d000e8ef084622a4165
_LaTeX_1-CVode.xml_en_US_3.png=c9502df63ce6b84e07e71808dc6dced2
_LaTeX_1-CVode.xml_en_US_5.png=02d123d57f2dfe1889d8f37f7419567f
_LaTeX_1-CVode.xml_en_US_6.png=b981082f958261a42a09d7e945f16cd6
_LaTeX_1-CVode.xml_fr_FR_3.png=70188e08de719741f5c327b65e37f2cf
_LaTeX_1-CVode.xml_fr_FR_5.png=b34ed6ee0bae956bf423fda401d6b2be
_LaTeX_1-CVode.xml_fr_FR_6.png=cda49c7a120976affcb759ce9ee41789
_LaTeX_1-CVode.xml_ja_JP_3.png=c9502df63ce6b84e07e71808dc6dced2
_LaTeX_1-CVode.xml_ja_JP_5.png=02d123d57f2dfe1889d8f37f7419567f
_LaTeX_1-CVode.xml_ja_JP_6.png=b981082f958261a42a09d7e945f16cd6
_LaTeX_1-CVode.xml_pt_BR_3.png=c9502df63ce6b84e07e71808dc6dced2
_LaTeX_1-CVode.xml_pt_BR_5.png=02d123d57f2dfe1889d8f37f7419567f
_LaTeX_1-CVode.xml_pt_BR_6.png=b981082f958261a42a09d7e945f16cd6
_LaTeX_1-CVode.xml_ru_RU_3.png=c9502df63ce6b84e07e71808dc6dced2
_LaTeX_1-CVode.xml_ru_RU_5.png=02d123d57f2dfe1889d8f37f7419567f
_LaTeX_1-CVode.xml_ru_RU_6.png=b981082f958261a42a09d7e945f16cd6
_LaTeX_2-Runge-Kutta.xml_1.png=e130ce3936e3d90b95bf43660f09cb4e
_LaTeX_3-Dormand-Prince.xml_1.png=e130ce3936e3d90b95bf43660f09cb4e
_LaTeX_4-ImplicitRK.xml_1.png=e130ce3936e3d90b95bf43660f09cb4e
_LaTeX_5-CrankNicolson.xml_1.png=e130ce3936e3d90b95bf43660f09cb4e
_LaTeX_6-IDA.xml_1.png=dff7132b713410ac0eb11a45b1d627dc
_LaTeX_6-IDA.xml_2.png=1aa0a943d7130da822dd44a06bd29841
_LaTeX_6-IDA.xml_3.png=0dc4144bc7f206b73cb21d076e514318
_LaTeX_6-IDA.xml_4.png=fd4d98e3f51e0df40b7279037376fcfa
_LaTeX_6-IDA.xml_5.png=45cccc2e93d5e06aac213e08e7ce740f
_LaTeX_7-DDaskr.xml_1.png=dff7132b713410ac0eb11a45b1d627dc
_LaTeX_7-DDaskr.xml_2.png=1aa0a943d7130da822dd44a06bd29841
_LaTeX_7-DDaskr.xml_3.png=0dc4144bc7f206b73cb21d076e514318
_LaTeX_7-DDaskr.xml_4.png=fd4d98e3f51e0df40b7279037376fcfa
_LaTeX_7-DDaskr.xml_5.png=45cccc2e93d5e06aac213e08e7ce740f
_LaTeX_AUTOMAT.xml_1.png=b00dadb00ee90db8e89a48a304c39b21
_LaTeX_AUTOMAT.xml_2.png=69cf58ca5b45e67bed0857e236236440
_LaTeX_AUTOMAT.xml_3.png=5a5dac85bf6322e43c574824bbbaa38c
_LaTeX_AUTOMAT.xml_4.png=8ac5a78be0c1c510ab3a9d448039ae7e
_LaTeX_AUTOMAT.xml_5.png=a5291981a6797b501c614f64f669a46b
_LaTeX_AUTOMAT.xml_6.png=be926979cd0fddca24f69853a3671cf5
_LaTeX_AUTOMAT.xml_7.png=e6a4cc642eb347c2d00876299bf47cbd
_LaTeX_CLSS.xml_1.png=8392c4dff7f5f80b1f7d1d2c89a0aa82
_LaTeX_CLSS.xml_2.png=944e22433464f50dd883ec1b8fadea37
_LaTeX_CLSS.xml_3.png=7903ebcafc1cfe1683893d926193ce4b
_LaTeX_CLSS.xml_4.png=ddfaf0bfb39cf7978750a26a0eb22cb6
_LaTeX_CLSS.xml_5.png=1aba733342de1f90dc856add5ca377ac
_LaTeX_CLSS.xml_6.png=4dee794e36bb3162f5d87469d93692c2
_LaTeX_CLSS.xml_7.png=28d86ad35e7440ebe638ed73e5bdbaae
_LaTeX_C_struct.xml_1.png=9049e58ebe910ce762c2d8cb913c31b0
_LaTeX_C_struct.xml_2.png=7da7b61069dbeeab5098c7db2ecdb241
_LaTeX_DEADBAND.xml_1.png=ab52676340ed2c7e0b0a114f45f11ae3
_LaTeX_DEADBAND.xml_2.png=6b4be892f0c70b1412654dba7ed3a7c0
_LaTeX_DELAY_f.xml_1.png=24f6fce55bbf2d7fdd9e525327b07847
_LaTeX_DERIV.xml_1.png=3fef2355bf4641bb0ebe31ca4c9a4017
_LaTeX_Diode.xml_1.png=3eb23a0e3442e1c297cf649d621b3d9f
_LaTeX_FROMWSB.xml_1.png=12ceba0046931ee8cf25df2f71f06a57
_LaTeX_FROMWSB.xml_2.png=edd38b21f4afb3b9bd3022d6594bc04d
_LaTeX_GENSQR_f.xml_1.png=746f663ac5f83b108763d9273b5f0e21
_LaTeX_INTEGRAL_m.xml_1.png=a5506c60abcfda2944a96cba27140390
_LaTeX_Inductor.xml_1.png=4e69417e6e0001a48e9abb40adf4be71
_LaTeX_RAMP.xml_1.png=c851aba90cb36bc4a4d869245c01a167
_LaTeX_SAWTOOTH_f.xml_1.png=d2352f773be10a7110da96a1bf7f316d
_LaTeX_STEP_FUNCTION.xml_1.png=7544adffd057978d0ddaed767ae05f25
_LaTeX_airy.xml_1.png=85ada28a038e551dea516e0780f5d194
_LaTeX_airy.xml_2.png=0ba7125fa8926afbd65815644153c697
_LaTeX_airy.xml_3.png=ed25f7735385d7115b62c030b29c9b63
_LaTeX_airy.xml_4.png=dd21759b389fa8497108d7ffa2b93448
_LaTeX_airy.xml_5.png=24e27ac7cb803a2c15a19e7fe81cd0fa
_LaTeX_airy.xml_6.png=99b138cc89d2519f769a3fa07261a4e0
_LaTeX_assert_computedigits.xml_1.png=082a70de2c216b6eb1951a75720fdcfc
_LaTeX_assert_computedigits.xml_2.png=27dba5ee1401d31d2106736651e99140
_LaTeX_bessel.xml_1.png=75b18324986d95f0ce739c723eff803f
_LaTeX_bessel.xml_2.png=91604506c2c5f30b0fab1ef9da180a89
_LaTeX_bessel.xml_3.png=5e4298e19e224d62ecbd7b6db2a80a31
_LaTeX_beta.xml_1.png=985c0d6227e43f606488047fc5cd7ed0
_LaTeX_binomial.xml_1.png=9f650a3f2c46ae011aa0d0e88f6f7ea4
_LaTeX_blockdiag.xml_1.png=26bcad469ac051064707c071f102456c
_LaTeX_bsplin3val.xml_1.png=53180456233c6fead6c34e6f97a34b22
_LaTeX_cdfgam.xml_1.png=0fde32f1e0edeb1f6426f9add9e8640a
_LaTeX_cdfnor.xml_1.png=b86b06522195bfcbfd8f4536dfa11330
_LaTeX_convol.xml_1.png=82bb4f128f0caee1a779c28ac0fa4df6
_LaTeX_corr.xml_1.png=51c8f81c08ebb3f4e16d3c478bba98ae
_LaTeX_cspect.xml_1.png=b0ddf127f0efe569040b1b969b9eb30b
_LaTeX_cumprod.xml_1.png=4a71bf575ae183b006d4b3ff57b97cc4
_LaTeX_cumprod.xml_2.png=dce716c26ba9ee77970d59e48cbec6ea
_LaTeX_cumprod.xml_3.png=dac1eef2ec85e26d497e63441494fb62
_LaTeX_cumprod.xml_4.png=d82dfaf597c37928175acc260e516802
_LaTeX_cumprod.xml_5.png=2557e0856332b1a8e4a4328a56e057fd
_LaTeX_cumsum.xml_1.png=b0966bf1a1dea7a67a6a346d5a1045d9
_LaTeX_cumsum.xml_2.png=9928dd8560ed99c6d4a7f2501c251e35
_LaTeX_cumsum.xml_3.png=ad4fc68bed991d7c2d850b7ecc164300
_LaTeX_cumsum.xml_4.png=92be80ef3cdebe4f217c931d0a1771aa
_LaTeX_cumsum.xml_5.png=c55efc7002f61d96caaea8aa5f3fc70f
_LaTeX_cumsum.xml_6.png=57c2893ef8abd65bd2d1e2820541b66c
_LaTeX_dawson.xml_1.png=c1e5e33f1a6dda99e99cc1c174d39da3
_LaTeX_dct.xml_1.png=2ab8327da7f356aa24836048a42c8d6a
_LaTeX_dct.xml_2.png=6003d73578178d83c8a456a7a75cd0cc
_LaTeX_dct.xml_3.png=ed83da2f4b4974d79b615fa756ccad16
_LaTeX_dct.xml_4.png=e0b5525d8028e14e0b966cc618e3891f
_LaTeX_dct.xml_5.png=3a9347912eb63f0db13e7755e6222774
_LaTeX_dct.xml_6.png=c0e3f553bdf2b00785d85a88c070d7ac
_LaTeX_dct.xml_7.png=c1281c78101880b1bfd5f00d8fe3f654
_LaTeX_dct.xml_8.png=f28152d5910cdadab309239834b072b3
_LaTeX_delip.xml_1.png=37cb84bfae9d9238643106ec09d43388
_LaTeX_derivat.xml_1.png=884753c7c6265a65bb3803b66a0fec59
_LaTeX_derivat.xml_2.png=1f26913a320e0f43588894e762729d16
_LaTeX_dlgamma.xml_1.png=0ea9c92ae3d7b2b814d8a4f769773cd8
_LaTeX_dst.xml_1.png=9cd22909f8eca591c252c206124e482f
_LaTeX_dst.xml_2.png=d35f934540a4804eb1475655fa5bd72b
_LaTeX_dst.xml_3.png=caa2ed7797bbc39b3a28cb86ce6ce771
_LaTeX_dst.xml_4.png=e0b5525d8028e14e0b966cc618e3891f
_LaTeX_dst.xml_5.png=487b751549c27e45c6f346757a948f45
_LaTeX_dst.xml_6.png=1c1c3e34d789b6c231379d588dbf6228
_LaTeX_ellipj.xml_1.png=6805bd44fc35b6ba47fb42e2e276e671
_LaTeX_erf.xml_1.png=e64af8badd1634f233888753939db01d
_LaTeX_fft.xml_1.png=b16d8d250dade64a45e1e557c4673442
_LaTeX_fft.xml_2.png=fa418662faf728120edcfff2a838bc8e
_LaTeX_filter.xml_1.png=f5eab130f2e7fd10b80a402952421a05
_LaTeX_gamma.xml_1.png=960350f434595f88477814ea577e1359
_LaTeX_gamma.xml_2.png=3c98a6fd836c18394e05939979158ebf
_LaTeX_gamma.xml_3.png=7aeff606c2524edc54dd085a53d673af
_LaTeX_gamma.xml_4.png=92502c47ca464eaea97178b3a176595d
_LaTeX_gamma.xml_5.png=073a5bfe2552bdd14720b09e0ba75ff3
_LaTeX_gamma.xml_6.png=328f28d7f22c29a647b1b93c6843b443
_LaTeX_grand.xml_1.png=dd59088e24bed7a6af5a6ccd16e58616
_LaTeX_grand.xml_2.png=4065036eed5d60beaa7f246c013cbff0
_LaTeX_hank.xml_1.png=fc6c604bc8c86af20a8f0673047332db
_LaTeX_histc.xml_1.png=86e9e40df666b60dcf23b351b0d7ede9
_LaTeX_histplot.xml_1.png=f1c5acc5939d55326dfab4af50e13f97
_LaTeX_int3d.xml_1.png=32be17c895d4e6eaef72a5aa50ac8629
_LaTeX_integrate.xml_1.png=2beee4d4fbe5e2aeb20027186400b73e
_LaTeX_karmarkar.xml_1.png=d4caed1162e3a4116b6de31699414bfd
_LaTeX_karmarkar.xml_2.png=2ca594f519a9251e53881be26d312348
_LaTeX_karmarkar.xml_3.png=36126a3292c13a18842b1e8f99e18b31
_LaTeX_karmarkar.xml_4.png=2379757f440c07ab9aeffe1b508f75b6
_LaTeX_karmarkar.xml_5.png=a35a1551eae946884ef2780daf3217c9
_LaTeX_karmarkar.xml_6.png=d7299efdc04def35c6a385007dd15a94
_LaTeX_kron.xml_1.png=b753c208628aee40d785c9913ff96b32
_LaTeX_lattn.xml_1.png=7ba64bdfad2c53fb336f12443f4926c6
_LaTeX_lattn.xml_2.png=9b7ed107c9acb432bc04c8505b9d96ce
_LaTeX_lattp.xml_1.png=7ba64bdfad2c53fb336f12443f4926c6
_LaTeX_leastsq.xml_1.png=3d52f8613fe5a2330979b844cd60da0b
_LaTeX_legendre.xml_1.png=901934bfc7bb9f760c29ed2d475cd9e4
_LaTeX_legendre.xml_2.png=7fb916ea1d3380604237466209a0e2f4
_LaTeX_levin.xml_1.png=7ba64bdfad2c53fb336f12443f4926c6
_LaTeX_levin.xml_2.png=f524fdf11d769933d7138962185e2606
_LaTeX_lft.xml_1.png=dc31caa4ca7b8e599933934a98dc2262
_LaTeX_lft.xml_2.png=f7625220850cedf58636ea45c8bb27ca
_LaTeX_lqe.xml_1.png=7b2750c6fbb5bb6287223136d920a603
_LaTeX_lqe.xml_10.png=5755ad79ed20d6a77890207206dd915b
_LaTeX_lqe.xml_11.png=bb34e1d2e08c29670191ca136cbac8d2
_LaTeX_lqe.xml_12.png=5badfadfca879cb7064fcd4f40c522a9
_LaTeX_lqe.xml_13.png=2781a5bef63099764888ea22e2adeddc
_LaTeX_lqe.xml_14.png=c76c57d5a1f43cdcb78069c14fac2e48
_LaTeX_lqe.xml_15.png=f239cba6f88528ca4b3132810519b031
_LaTeX_lqe.xml_16.png=201f41398fd05e1281b0933332345998
_LaTeX_lqe.xml_17.png=0239b7d4129280ce374c9d4682e9c889
_LaTeX_lqe.xml_2.png=9b6138425e4dd689875020cd12bc6f04
_LaTeX_lqe.xml_3.png=25d24c06085cdb3e981cd2fb3c110078
_LaTeX_lqe.xml_4.png=78257f2bb2a4f8bc0b8dc8a0cacb557a
_LaTeX_lqe.xml_5.png=92d2476ea4c425567456e49af56d97b2
_LaTeX_lqe.xml_6.png=bdda948300dd77aa5c41682d805013d9
_LaTeX_lqe.xml_7.png=b93a17b7fd76d5c68f724589d46ca753
_LaTeX_lqe.xml_8.png=ad50fa6403bff8c2043858599ebb72b0
_LaTeX_lqe.xml_9.png=a06e752629a0995fd56673195e8d34e8
_LaTeX_lqg.xml_1.png=c76c57d5a1f43cdcb78069c14fac2e48
_LaTeX_lqg.xml_2.png=28773fb26211b6fbcf412437ff1eefe3
_LaTeX_lqg.xml_3.png=70365cbb43562acf91a858531234f57b
_LaTeX_lqg.xml_4.png=1f306842a1aaf87da7fa8538d1037bac
_LaTeX_lqg.xml_5.png=596b38632afcc3eb32ef80ddc2e0875e
_LaTeX_lqg2stan.xml_1.png=8c0dc115d0f9cb4dcaccdfd1e02ae037
_LaTeX_lqg2stan.xml_2.png=f3c0eb249d6e31a765bd08b17267dc2c
_LaTeX_lqg2stan.xml_3.png=0eddf29e58b37c9c2e559a7aee3b6040
_LaTeX_lqg2stan.xml_4.png=ff0275c1774bec55adcca8e953b7c652
_LaTeX_lqi.xml_1.png=202f052d5f7c4c1a87e603671bba4515
_LaTeX_lqi.xml_2.png=b14564b39fe1a3290dea9744c44db445
_LaTeX_lqi.xml_3.png=576256a0e3b53b1cb60a9ca8b225eca9
_LaTeX_lqi.xml_4.png=e351637f0212051af61bc20ea656e0cd
_LaTeX_lqi.xml_5.png=353544387bfdd0c86d8f2176e0366928
_LaTeX_lqi.xml_6.png=6ab1f7ce29d37d19e7d4654197a837a0
_LaTeX_lqr.xml_1.png=31037a1c8787d84003f44ab8d2f105c8
_LaTeX_lqr.xml_10.png=1ff37d28f9419ed44a429337f23eb752
_LaTeX_lqr.xml_11.png=70365cbb43562acf91a858531234f57b
_LaTeX_lqr.xml_12.png=1f6bd1edd1312918b4725b58adec08fe
_LaTeX_lqr.xml_2.png=a1b02896c5a8fde0c723ae52a73fb10a
_LaTeX_lqr.xml_3.png=67b8465c0729d9a01cbbb3b0e4a3dac7
_LaTeX_lqr.xml_4.png=ce955c2a6d03709ed435271aaeaa31f3
_LaTeX_lqr.xml_5.png=c4845e8ba7f75f02530532af11fb7a95
_LaTeX_lqr.xml_6.png=4f6dd247e1f511ea66298c4c2a76bb94
_LaTeX_lqr.xml_7.png=c5cd7e3f5ea453e798ef0d5e0cbe734c
_LaTeX_lqr.xml_8.png=1645328711c5c5406c0bff794c3afd40
_LaTeX_lqr.xml_9.png=c76c57d5a1f43cdcb78069c14fac2e48
_LaTeX_lsq_splin.xml_1.png=2397b9dd603fb440564750130da26127
_LaTeX_nchoosek.xml_1.png=135b3c20a094e91dbe86ffaf4db0ffcc
_LaTeX_nchoosek.xml_2.png=5070bc471485a78578069bb4405225b4
_LaTeX_number_properties.xml_1.png=e44429416209c43ee6736fc6e4fb475e
_LaTeX_number_properties.xml_2.png=672a7aeac9254219b9609330a12e55e5
_LaTeX_number_properties.xml_3.png=e0fec874e861bbf6bd95ae5bdd8df9e3
_LaTeX_number_properties.xml_4.png=03cbbce1fe1125d9cf1a92243b1091a6
_LaTeX_number_properties.xml_5.png=9b14e66e7f791eab3fc3872c25023696
_LaTeX_number_properties.xml_6.png=bf4a89be3c0a01be7a28b3ac7ae25db7
_LaTeX_number_properties.xml_7.png=9b14e66e7f791eab3fc3872c25023696
_LaTeX_numderivative.xml_1.png=acf266aee60273f7f847b316d7d5e3fb
_LaTeX_ode.xml_1.png=84ae2f6a526a30f59b67ce587fcd28c9
_LaTeX_pack.xml_1.png=44e43279e4a6173003d2e27d996c92e5
_LaTeX_percente.xml_1.png=3be181064c31bd09ccf0caddf10b3e85
_LaTeX_percentk.xml_1.png=3f3bd79cf1cdbfb65e3b968410acb779
_LaTeX_prod.xml_1.png=05a314d76d3342cb017a069e00be89bc
_LaTeX_prod.xml_2.png=36e17bceced31cceba9ae0745b814988
_LaTeX_prod.xml_3.png=cd9dd14f63c05c574d2b9d7af5f12b38
_LaTeX_prod.xml_4.png=328f426a2ba5a5c8addff7ed0856f865
_LaTeX_prod.xml_5.png=57033343009b691a8288617953c2dd43
_LaTeX_pspect.xml_1.png=b0ddf127f0efe569040b1b969b9eb30b
_LaTeX_semidef.xml_1.png=69da8dee51aab98296232a5bc939053a
_LaTeX_semidef.xml_2.png=9852782930e4e21c7115f35f70ab0966
_LaTeX_semidef.xml_3.png=2098b9e5e447ece7cd838247adcb262b
_LaTeX_semidef.xml_4.png=44e43279e4a6173003d2e27d996c92e5
_LaTeX_splin.xml_1.png=af0a8f6474a7254de0fc7ea25a388f66
_LaTeX_splin2d.xml_1.png=d8560d407972da202ab8e2e081ed5e7b
_LaTeX_ss2zp.xml_1.png=b03e0f26548784f834e2978d640ded24
_LaTeX_sum.xml_1.png=ef9aafe044823d17d08371770fa73e9f
_LaTeX_sum.xml_2.png=b4f505fff21a34a842c50a707dd320ee
_LaTeX_sum.xml_3.png=d612fb0515b4c079f4601c435d6d0206
_LaTeX_sum.xml_4.png=4948a5e8e21b96de5f899532c095edc0
_LaTeX_sum.xml_5.png=87d06d76f76c0309af6fcc07606b889a
_LaTeX_xcorr.xml_1.png=cf889f12f575a8118808df4285699794
_LaTeX_xcorr.xml_2.png=ad65fb02a06736c6abc832f4858ddc40
_LaTeX_xcov.xml_1.png=bd647703daba20ec9bdcbd4990f9b870
_LaTeX_xcov.xml_2.png=c3aca862f464e22afc94aaab24f6785f
_MathML_bvode.xml_1.png=59ed6d548d1dd196562b40c2156fc0b5
_MathML_bvode.xml_10.png=32dee1f6fd70c8d056d1a9682421da08
_MathML_bvode.xml_11.png=60db5d62c85d0387f36e98e6837dbd33
_MathML_bvode.xml_12.png=7dc1b31764427eded50f68202155a8a9
_MathML_bvode.xml_13.png=b6db874e38fe0d68e524be430ec060ad
_MathML_bvode.xml_14.png=c57bdb3034b8d1522bc1b4c11d2f61dd
_MathML_bvode.xml_15.png=ed2fe95a3d9950b0a064c906b3d16ec5
_MathML_bvode.xml_16.png=0a64f0d2beafcdf8439f58c800f97601
_MathML_bvode.xml_17.png=249b48aa0c3ecbe78f48e272829a8d81
_MathML_bvode.xml_2.png=59ed6d548d1dd196562b40c2156fc0b5
_MathML_bvode.xml_3.png=33b8fd257f3d303336f499095f6b5fb6
_MathML_bvode.xml_4.png=92cb8dfb9998786825c066ff41eeb720
_MathML_bvode.xml_5.png=c863531c689fb682670135ceb613c957
_MathML_bvode.xml_6.png=1ed4c935d2284b40682e057678b17370
_MathML_bvode.xml_7.png=dbfb90b14e8984ee213639732f1eb0b1
_MathML_bvode.xml_8.png=4bcb1817068a699caeb5b1d9aeac2e2d
_MathML_bvode.xml_9.png=3b57ed40251a3a9a66f84e960d45b517
acos_1.png=17d595e24e7d60478a837a3b8abe0798
acosd_1.png=a933487424afe251b71aaf38fb285f1c
acosh_1.png=a4c877a5afc85aa549c2b29e0fd8507a
acot_1.png=a102809de68b60a3b3d26ff22f77b598
acotd_1.png=8c6cc74d7cd9304c123d573409dcd01f
acoth_1.png=d6d4fa73c056224341009d0ed4735abd
acsc_1.png=4fd05d7d355266d821063c9a6c26abb0
acscd_1.png=6e599765c5f8d0e189002d51f2d9068a
acsch_1.png=15259a5eaa158abd0fd70e05b27d69eb
addcolor_1.png=7e5f272c2700aafbd41da8efd8e9d8eb
airy_1.png=4a046e9854c5d1b761d532acfa45296b
airy_2.png=bcbcd5ee1de18b8202b2208b1f10971c
analpf_1.png=6d59d9510e91abd50fcfd04a4b129d93
analyze_1.png=a292b13f6ec462f202850010d77eb59e
arl2_1.png=08f7b10fe894dbb9e21a4f965de0fe07
arma_en_US_1.png=dc5f992783f4db687e23a65866dac816
arma_fr_FR_1.png=dc5f992783f4db687e23a65866dac816
arma_pt_BR_1.png=dc5f992783f4db687e23a65866dac816
arma_ru_RU_1.png=dc5f992783f4db687e23a65866dac816
armax_1.png=5fdbed31dc9b8fb80884b5d96fe7b2a2
asec_1.png=baebf8dc0568c70996c9d3aa9418165d
asecd_1.png=5dafaa5b46f5ed7d0f80b33a10835429
asin_1.png=2bf3e9d21cf149b4baf4685c2c4061a3
asind_1.png=228e297136b7b30666241d462f5c58c8
asinh_1.png=487c5932acafb700ce3ff3da7dc485a3
atand_1.png=8c5dae12354712ac3fab90999228771c
autumncolormap_1.png=00826c2a0572e5c987444f8bb7d9e66b
axes_properties_1.png=7be98709869bc90641f5f5224793b44b
axes_properties_2.png=39b7ef77b59dee8544c01142e8a6f4e1
axes_properties_3.png=9f69d8bb42f7272cdae59d196cc6a5e7
axes_properties_4.png=91c4089412926c6fc2e55f37b9f93f3d
axes_properties_en_US_5.png=2906656fb92aaac4ad891cfa0347f142
axes_properties_fr_FR_5.png=2906656fb92aaac4ad891cfa0347f142
axes_properties_ja_JP_5.png=2906656fb92aaac4ad891cfa0347f142
axes_properties_pt_BR_5.png=2906656fb92aaac4ad891cfa0347f142
axes_properties_ru_RU_5.png=2906656fb92aaac4ad891cfa0347f142
bar3d_2.png=05ab33f25de5b8c334228dc7ab2ebea2
bar3d_3.png=46f6541f7b007844a849fe79edaae5ca
bar3d_4.png=f425417f4685123638aa7b4f0d81d97e
bar3d_5.png=dbdcacad9847f602262c12e7a3631eba
bar3d_en_US_1.png=c6b390df4f9b9e5ff3db3f891f1e5dce
bar3d_fr_FR_1.png=c6b390df4f9b9e5ff3db3f891f1e5dce
bar3d_ja_JP_1.png=c6b390df4f9b9e5ff3db3f891f1e5dce
bar3d_pt_BR_1.png=c6b390df4f9b9e5ff3db3f891f1e5dce
bar3d_ru_RU_1.png=c6b390df4f9b9e5ff3db3f891f1e5dce
bar_1.png=968aa7a4f076bc4bd450f5ad25845434
bar_2.png=f4c4662565d146bc03ba40b0344897aa
bar_3.png=e658d6bd8080ca95d71ef70c5431f7c8
bar_4.png=1e414775f31d29efa63acda837818019
barh_1.png=0b708acffc2f268acecbfc73aa846675
barh_2.png=b0c9fd105c8654d8bd29d5653638e090
barh_3.png=3c8e049a779aa39557f06c0f1100d9de
barh_4.png=d512ecebeca33e008379e73a9b7e4ee0
barhomogenize_1.png=be26fcf2379896a04bcdb3e05f43df1e
barhomogenize_2.png=7a71570219dfa35d04bcfd96ed3659df
bessel_1.png=a99ebb6beeb99537ca3ab9d1b15f707c
bessel_2.png=0b812fd51dfafe021ced32d86d51c792
bessel_3.png=cbce4edf613965d74ad8327f769ef4e8
bessel_4.png=7c5e6fac573e8d508aa927ec3dddd624
bessel_5.png=bf55cc481de665edbb4bbd2c158f1e75
bessel_6.png=0cd4d77062739ccd83497225b12f5cb8
beta_1.png=9a1befb2ccdf46fa61740e5497f20626
beta_2.png=04a9f22fd027c5b6bb3c5609603e481b
black_en_US_1.png=3a12354aa40f1e274c76fc0756eebecf
black_en_US_2.png=6cc1b3c0517fd885c2fb0a8d343d1835
black_fr_FR_1.png=3a12354aa40f1e274c76fc0756eebecf
black_fr_FR_2.png=6cc1b3c0517fd885c2fb0a8d343d1835
black_ja_JP_1.png=770c307a0e4d098c28779e5a44f81254
black_ja_JP_2.png=ee58e288bb9d9bb9351327e010716613
black_pt_BR_1.png=3a12354aa40f1e274c76fc0756eebecf
black_pt_BR_2.png=6cc1b3c0517fd885c2fb0a8d343d1835
black_ru_RU_1.png=3a12354aa40f1e274c76fc0756eebecf
black_ru_RU_2.png=6cc1b3c0517fd885c2fb0a8d343d1835
bode_asymp_en_US_1.png=a2a6af7a449aa3405d2f471484ccf87f
bode_asymp_en_US_2.png=8e047cf20d83ed164a9986439ee57bd5
bode_asymp_en_US_3.png=13240a8758ff7620cbb83db8f7b3d708
bode_asymp_en_US_4.png=3abb4ef99eec204ffed235288afcf022
bode_asymp_fr_FR_1.png=e0aa9c2f2486ca5dd0b1a9b668e9b7e5
bode_asymp_fr_FR_2.png=23ee6639f39e8def9e6275d3913f0eaa
bode_asymp_fr_FR_3.png=13240a8758ff7620cbb83db8f7b3d708
bode_asymp_fr_FR_4.png=3abb4ef99eec204ffed235288afcf022
bode_asymp_ja_JP_1.png=a2a6af7a449aa3405d2f471484ccf87f
bode_asymp_ja_JP_2.png=8e047cf20d83ed164a9986439ee57bd5
bode_asymp_ja_JP_3.png=13240a8758ff7620cbb83db8f7b3d708
bode_asymp_ja_JP_4.png=3abb4ef99eec204ffed235288afcf022
bode_asymp_pt_BR_1.png=a2a6af7a449aa3405d2f471484ccf87f
bode_asymp_pt_BR_2.png=8e047cf20d83ed164a9986439ee57bd5
bode_asymp_pt_BR_3.png=13240a8758ff7620cbb83db8f7b3d708
bode_asymp_pt_BR_4.png=3abb4ef99eec204ffed235288afcf022
bode_asymp_ru_RU_1.png=a2a6af7a449aa3405d2f471484ccf87f
bode_asymp_ru_RU_2.png=8e047cf20d83ed164a9986439ee57bd5
bode_asymp_ru_RU_3.png=13240a8758ff7620cbb83db8f7b3d708
bode_asymp_ru_RU_4.png=3abb4ef99eec204ffed235288afcf022
bode_en_US_1.png=5d7c38b094cee911ec2cc42dd7050176
bode_en_US_2.png=3a40a98fd3fb7a58e9f8282a4b515f71
bode_en_US_3.png=54e2e49410f3da1d8f49577b573bc289
bode_fr_FR_1.png=5d7c38b094cee911ec2cc42dd7050176
bode_fr_FR_2.png=3a40a98fd3fb7a58e9f8282a4b515f71
bode_fr_FR_3.png=54e2e49410f3da1d8f49577b573bc289
bode_ja_JP_1.png=87ec396c51a7cc6aafb148e1aa5f9256
bode_ja_JP_2.png=95d29219903b7e027aef6a1618855bc0
bode_ja_JP_3.png=54e2e49410f3da1d8f49577b573bc289
bode_pt_BR_1.png=5d7c38b094cee911ec2cc42dd7050176
bode_pt_BR_2.png=3a40a98fd3fb7a58e9f8282a4b515f71
bode_pt_BR_3.png=54e2e49410f3da1d8f49577b573bc289
bode_ru_RU_1.png=5d7c38b094cee911ec2cc42dd7050176
bode_ru_RU_2.png=3a40a98fd3fb7a58e9f8282a4b515f71
bode_ru_RU_3.png=54e2e49410f3da1d8f49577b573bc289
bonecolormap_1.png=92247210e578a35b3770d67e94bae718
buttmag_1.png=9fff0bd432661a67efdde3c0c3a34465
bvode_en_US_1.png=f5839719400ab9f8ae4004c3c7bad4ff
bvode_en_US_2.png=16a5a1c05729984b06b71424fd39500c
bvode_fr_FR_1.png=f5839719400ab9f8ae4004c3c7bad4ff
bvode_fr_FR_2.png=16a5a1c05729984b06b71424fd39500c
bvode_ja_JP_1.png=f5839719400ab9f8ae4004c3c7bad4ff
bvode_ja_JP_2.png=16a5a1c05729984b06b71424fd39500c
bvode_pt_BR_1.png=f5839719400ab9f8ae4004c3c7bad4ff
bvode_pt_BR_2.png=16a5a1c05729984b06b71424fd39500c
bvode_ru_RU_1.png=01ec0025ccdfee64f2785ae3083fa63b
bvode_ru_RU_2.png=eb485a8d1f0ab93548d79a2b6bff5bff
calfrq_1.png=0f4cfd31e6a05d4149c567c01272f96a
captions_1.png=19ddf03ac04cd2b8ebbed9f218dbaa3e
cdfbet_1.png=311cb1e4fb872d6f82b2dcafaa5911d1
cdfbin_1.png=6fd656ebfb423bc5fcf3fdc7e1a82aa8
cdfnor_1.png=3ff24d742eb574cda6f7ca5f8aa38ffe
cdfnor_en_US_2.png=f6deb7f340aad408031249884d3849e0
cdfnor_fr_FR_2.png=90c71ed70c33396383ca3acf8b780c5a
cdfnor_ja_JP_2.png=f6deb7f340aad408031249884d3849e0
cdfnor_pt_BR_2.png=f6deb7f340aad408031249884d3849e0
cdfnor_ru_RU_2.png=f6deb7f340aad408031249884d3849e0
cepstrum_1.png=455b8e394db80f8bb6fb8c656a069af3
champ_1.png=93ae8a9901fda82c64ef93bf191628a8
champ_2.png=1481a818a469230ed0972650870351a4
champ_properties_1.png=6409c708318038fda6b54aacc96937eb
cheb1mag_1.png=3b26f5856ff8a2bcfbcf78e2d77cb5c1
cheb2mag_1.png=d53206e41bccd28401ab6309ce2f941a
color_1.png=8c94d2cd086d9ccb4ebc994bfd2dcf32
colorbar_1.png=2def5deea87823d5e506fd23c1d3bbaa
colorbar_2.png=08676eb69790372ff48052d9bfccb8c3
colorbar_3.png=292d69dafbd3a147b474899d3e1305ac
colorbar_4.png=72e7fa8b4c2ef7786caa3c7cf1ab3e27
colorbar_5.png=7baeab5e23d320fffa7928ca78ff54ea
colorbar_6.png=f45bccb9441fd558c25f8ff3e2a84d3b
colordef_1.png=b862d25fe3199de144cb45c810a43085
colordef_2.png=8dffacb993e0972367eaabb29383154f
colordef_3.png=d2d2bbfdf2fa2104f8c2fae819d48c49
colormap_en_US_1.png=663f40455aa64c1e47b478a0f5a3ec69
colormap_fr_FR_1.png=663f40455aa64c1e47b478a0f5a3ec69
colormap_ja_JP_1.png=663f40455aa64c1e47b478a0f5a3ec69
colormap_pt_BR_1.png=663f40455aa64c1e47b478a0f5a3ec69
colormap_ru_RU_1.png=663f40455aa64c1e47b478a0f5a3ec69
contour2d_1.png=ca9b620f09fbcc77799e2286b6730e2d
contour2d_2.png=17ab108bdc0ada9293b732fd92e873c1
contour2d_en_US_3.png=ebec703f3a8e5c98c9af484ad0583201
contour2d_fr_FR_3.png=ebec703f3a8e5c98c9af484ad0583201
contour2d_ja_JP_3.png=ebec703f3a8e5c98c9af484ad0583201
contour2d_ru_RU_3.png=a68dd1b239f2dd3ae50c83c363ef4263
contour2dm_1.png=31a3b6c2aaa5ae5cfa0cf185d3a76caa
contour2dm_2.png=f90a7ebef7685645fd3d5c2583b27f93
contour_1.png=d285038265f8a3d989244534a70de17a
contour_2.png=a258fbbbca3c5fbc630a6a036d191cf1
contour_3.png=634fbf34f0fd9907ddcf7a2faca80a9f
contourf_1.png=97e4db28e729f0b311fc4fc9c6ab7b4d
contourf_2.png=e1297e14d0d0a86bd97becc5015d2e67
coolcolormap_1.png=7f2f2f75aa4a87ce1f3ddc2f579aed8a
coppercolormap_1.png=fa3c836b1428445343c73fc567f231f6
cos_1.png=c6c7f3d98fff71c465752251dd629a91
cosd_1.png=eb8be1b0523b7acae8c1ef821fdd682f
csc_1.png=a13e98eda7cbe1284ee48f276b77add7
csch_1.png=310369792df908182b68dc09625caaca
cshep2d_1.png=968c99bcf62829dcfe29be5377837624
csim_1.png=8184fd84b36876d13e1bfe051c711645
csim_2.png=26554bbec6828a1f5ac20cbb509d38d4
csim_3.png=c1b39c2350976c73e2b641855d55ddba
csim_4.png=2795df06343733566b9081791d821f28
csim_5.png=ac09bcd32af2fb43ae1028732ebbc1b7
cutaxes_1.png=883a82c09580af47d68199bd3e77b654
cutaxes_2.png=4641ed353eaf2c6b784ef89e04e65b2d
cutaxes_3.png=a7fd474cb04262e4254d8c727f37f312
cutaxes_4.png=d38b398f63c33ece2b58032125285306
cutaxes_5.png=51e24ed119abb854d0da2ead35e2fe3b
cutaxes_6.png=3030c2c6f11ffa417b37d35ddb06c0e3
dae_1.png=354c9c3bd2dd2364c41faa6521e4f8dc
dae_2.png=27ba222bd0de354067def52e330cfbad
damp_en_US_1.png=e81873a345f84e42ce2c4f4779d3421d
damp_fr_FR_1.png=e81873a345f84e42ce2c4f4779d3421d
damp_ja_JP_1.png=e81873a345f84e42ce2c4f4779d3421d
damp_pt_BR_1.png=e81873a345f84e42ce2c4f4779d3421d
damp_ru_RU_1.png=e81873a345f84e42ce2c4f4779d3421d
datafit_1.png=d6c5c83671a637f4cbfeccd4c577f31e
datatipCreate_1.png=8ec8bfcd7f9dfd2a04b65f08309ee8fe
datatipGetEntities_1.png=71ddeec8bd4accf61d6e6aac4d089514
datatipRemove_1.png=3e6636ded796971426532081bd7c4b7c
datatipSetDisplay_1.png=a38bd926c09ff69e5ddc92aa0bad8437
datatipSetInterp_1.png=14b2e2d34bf4b0fd9a8cefafb382b9fd
datatipSetOrientation_1.png=195794e45b7ae088da862c074079b9e8
datatipSetStyle_1.png=6c902d69034f718ca0e7ca418512126f
datatips_1.png=d8254c1e9ef203384cdc9c45044737c2
datatips_2.png=4052a4546ac5ee65fa61ed0dbe165513
dawson_1.png=8337670f1b3d342ac563847ee9766b58
detrend_1.png=2eccb4bd13c0ab0b23b0b8a36477116b
detrend_2.png=87e3a6b831bea33f9497349bafa3ff14
drawaxis_1.png=08e796fb40ab072abf4067a37542a620
dsearch_1.png=6b6488c1a07a7ed26d0be6076d93b527
dsearch_2.png=f3737f4694bf1cff51d660822b0579c4
dsearch_3.png=53954438cd5b4a62b3fb8687c66514e4
dsearch_fr_FR_1.png=c514bed6d16e460572895227f3e86f14
dsearch_fr_FR_2.png=fafbfb1fd80337e9567602ea7c1f01d0
dsearch_fr_FR_3.png=0baf82271411b092b792e67c4ebd25e1
ell1mag_1.png=7998d7d38715c29e6fbd3525b3511824
ellipj_1.png=df6096a7d05bac469671ac78e97ee559
ellipj_2.png=bab3e66a55983fbff49f0812d89ca254
eqfir_1.png=ccaf8d9b3be54b01b15910cd2935ed94
erfinv_1.png=a9c079e2216ea843f529d8fa1af6a38d
errbar_1.png=f0db95118951d4c04c3bde7c93e2fa2e
eval3dp_1.png=02e80dc6ec334a5caf5b2c918e68bad3
eval_cshep2d_1.png=5af907b540319286ce844b966cf742e6
evans_en_US_1.png=91ce84e7714915348624b03889256895
evans_fr_FR_1.png=91ce84e7714915348624b03889256895
evans_ja_JP_1.png=91ce84e7714915348624b03889256895
evans_pt_BR_1.png=91ce84e7714915348624b03889256895
evans_ru_RU_1.png=91ce84e7714915348624b03889256895
factorial_1.png=f1b25752b2eafe563d1ae461774334c4
fchamp_1.png=ee67b6aca421a82b83da821e4d7121de
fchamp_2.png=2a078aea05fbcd35df81170239376b2a
fec_1.png=e0a7716ead7fd2e608cc0945d0c4331c
fec_2.png=386c22e2a995f984e1f0f0d3caae93da
fec_3.png=14ac81b72a86fff8e697918ecb7b8d80
fec_4.png=90416d98c11b74c5d9ca7cee1c8a7070
fec_5.png=e9ad6f76388b0537f20eadae52d98b3c
fftshift_1.png=6ac2e2db1929ffc261e51b373f204556
fftshift_2.png=6ddc93411dff0156784b9ada5486a220
fgrayplot_1.png=37a25f51cb82aa32bde44a32973fe92a
filt_sinc_1.png=1b2698a55faedf941078a6567db543f9
flts_1.png=df09481a82788cd69c809c512d4e5689
fminsearch_en_US_1.png=6cf1eadbc3b230cbc61398d875433316
fminsearch_fr_FR_1.png=6cf1eadbc3b230cbc61398d875433316
fminsearch_ja_JP_1.png=6cf1eadbc3b230cbc61398d875433316
fminsearch_pt_BR_1.png=6cf1eadbc3b230cbc61398d875433316
fminsearch_ru_RU_1.png=6cf1eadbc3b230cbc61398d875433316
fplot3d1_1.png=4f23b549976a516f83d91c7991268b3c
fplot3d_1.png=ba85d76348d2aba0b986191799831e93
frep2tf_1.png=01f1811ca1a61c96cc1dbf0304f244da
frep2tf_2.png=d9f09f1ea92f2c9a95fd2e4099c4e9a2
freq_div_1.png=d50cf5bef89a6648695807129d746024
freson_en_US_1.png=ae3a8393f831c9ef5810b765d647e04e
freson_en_US_2.png=0e458e3475681df1b40fe0fc44b06259
freson_fr_FR_1.png=ae3a8393f831c9ef5810b765d647e04e
freson_fr_FR_2.png=0e458e3475681df1b40fe0fc44b06259
freson_ja_JP_1.png=ae3a8393f831c9ef5810b765d647e04e
freson_ja_JP_2.png=0e458e3475681df1b40fe0fc44b06259
freson_pt_BR_1.png=ae3a8393f831c9ef5810b765d647e04e
freson_pt_BR_2.png=0e458e3475681df1b40fe0fc44b06259
freson_ru_RU_1.png=ae3a8393f831c9ef5810b765d647e04e
freson_ru_RU_2.png=0e458e3475681df1b40fe0fc44b06259
frfit_1.png=f296c3d571fae9acbb8081ff80805ea7
frmag_1.png=b3dea97186e64d82c1132ab01bc6c507
fsfirlin_1.png=55eb22289db1fc4198d44c4283b6fa4a
fsolve_1.png=b7cc84aee23c4c49f76e6388d2e3048d
g_margin_1.png=2ba96a2bfc79a5a5ecb7767df01fc06a
g_margin_2.png=f5e2b73f6264d0de7b06013e8da74a2e
gainplot_en_US_1.png=d213684f7b1a3ed02b63da2b67d4ac33
gainplot_fr_FR_1.png=d213684f7b1a3ed02b63da2b67d4ac33
gainplot_ja_JP_1.png=d213684f7b1a3ed02b63da2b67d4ac33
gainplot_ru_RU_1.png=d213684f7b1a3ed02b63da2b67d4ac33
gamma_1.png=f394755ab046e37f0c580b182a669f46
gamma_2.png=1ada3c5257f5a417f2b68ae90a54bd30
gamma_3.png=f7217206a73638c2fe8e5cfd96fb6cee
genfac3d_1.png=82ced89cadf20315ddd7c7d026c81443
geom3d_1.png=4bd6a5c64616f25637e575edfe070cd9
geom3d_2.png=0896ca44de9f622ef3a366a18b4bea53
grand_en_US_1.png=23e73400616e24df73d92d49ae136ca8
grand_en_US_2.png=24523563e0ae758b711cc2fd9d2ab0c6
grand_en_US_3.png=50f697dbff8e5b6d2f7e9cbb87748bb5
grand_en_US_4.png=91a301dc2bc17fd8e3c7c0ba58218e68
grand_en_US_5.png=c97d5ef0523d9e1945db0e2c96f163f7
grand_en_US_6.png=374e805706f6315deb09329c0dc4ee9d
grand_fr_FR_1.png=b244998d7d604f60de6e1a52a9556a02
grand_fr_FR_2.png=35ddd9091d63685a8825fcbb0c97ec61
grand_fr_FR_3.png=281fca0a3e29c4465904cf2d05ca8a65
grand_fr_FR_4.png=15156b1094e0e9e6c6e0ffd06f253a78
grand_fr_FR_5.png=1443d8a14b6726a33f86fa9700761ce8
grand_fr_FR_6.png=6eb71a42904c95ada35afd10d33103f1
grand_pt_BR_1.png=23e73400616e24df73d92d49ae136ca8
grand_pt_BR_2.png=24523563e0ae758b711cc2fd9d2ab0c6
grand_pt_BR_3.png=50f697dbff8e5b6d2f7e9cbb87748bb5
grand_pt_BR_4.png=91a301dc2bc17fd8e3c7c0ba58218e68
grand_pt_BR_5.png=c97d5ef0523d9e1945db0e2c96f163f7
grand_pt_BR_6.png=374e805706f6315deb09329c0dc4ee9d
grand_ru_RU_1.png=7476fe4532159919ef6fb083cab09542
grand_ru_RU_2.png=85ab7a8d545ed270c78ac0867a5d640f
grand_ru_RU_3.png=5a2fb0595561f307c034c883e13624a2
grand_ru_RU_4.png=170b2f4f673f1fac9046f3d2fd7c5c2e
grand_ru_RU_5.png=7878888671f2fa747c5a9a07399110b3
grand_ru_RU_6.png=ed08a1918cab6b83b153ade49a353a7c
graycolormap_1.png=d833922c17d3d671dd79cee1e14578d8
grayplot_1.png=a24a994d92924535d660c5655aaa2089
grayplot_2.png=a9e3251523550c0c43869fdf37c7f127
graypolarplot_1.png=00268b5468c68bd5ae7035eda03436cd
group_1.png=6b464b1c93fe85515d25c7657ec66167
hallchart_en_US_1.png=5ccecfd417656a9759b80525b28800f5
hallchart_en_US_2.png=4541241c0ddfc457304ab991622674db
hallchart_en_US_3.png=dc897cce236116eab58cadab38e96ff2
hallchart_fr_FR_1.png=5ccecfd417656a9759b80525b28800f5
hallchart_fr_FR_2.png=4541241c0ddfc457304ab991622674db
hallchart_fr_FR_3.png=dc897cce236116eab58cadab38e96ff2
hallchart_ja_JP_1.png=5ccecfd417656a9759b80525b28800f5
hallchart_ja_JP_2.png=4541241c0ddfc457304ab991622674db
hallchart_ja_JP_3.png=dc897cce236116eab58cadab38e96ff2
hallchart_pt_BR_1.png=5ccecfd417656a9759b80525b28800f5
hallchart_pt_BR_2.png=4541241c0ddfc457304ab991622674db
hallchart_pt_BR_3.png=dc897cce236116eab58cadab38e96ff2
hallchart_ru_RU_1.png=5ccecfd417656a9759b80525b28800f5
hallchart_ru_RU_2.png=4541241c0ddfc457304ab991622674db
hallchart_ru_RU_3.png=dc897cce236116eab58cadab38e96ff2
hilbert_1.png=51518f324c6c0ba177825aa4dca3d431
histplot_1.png=becfb3115ba4cd9eaee18c2535dc557a
histplot_en_US_2.png=8117e3f08f726740eb7a4e19b7c80cf1
histplot_en_US_3.png=cd3e60e8f0a028549da7547fbf4b7222
histplot_en_US_4.png=32ceb6321053502807acf86e7718e1e6
histplot_fr_FR_2.png=d7eff354adbf2b188f02d60ae6a83c8c
histplot_fr_FR_3.png=77b4c00287c0149ee45394cb8d7c90f9
histplot_fr_FR_4.png=9f0488890164fcd63430aa90ca92ecd8
histplot_ja_JP_2.png=8117e3f08f726740eb7a4e19b7c80cf1
histplot_ja_JP_3.png=cd3e60e8f0a028549da7547fbf4b7222
histplot_ja_JP_4.png=32ceb6321053502807acf86e7718e1e6
histplot_ru_RU_2.png=8117e3f08f726740eb7a4e19b7c80cf1
histplot_ru_RU_3.png=cd3e60e8f0a028549da7547fbf4b7222
histplot_ru_RU_4.png=32ceb6321053502807acf86e7718e1e6
hotcolormap_1.png=93b81776ad0b15d88239eab74997022e
householder_1.png=8a7bce8cfadfbf5d70436734b66ec20d
hsv2rgb_1.png=7d20c259e94301d9763fbddb7bff4784
hsvcolormap_1.png=11918d88bcc793200af0b9f1b58b0554
iir_1.png=e675c2755f68ddc4611c849895b63012
intdec_1.png=da3896e7d2e8468dd33edf57ccbe4480
interp1_1.png=e76a8e0a6070fbe078060844707c49fe
interp2d_1.png=f4af61bc3faf493d778169ec7decc7ae
interp2d_2.png=a62363849a3a9a3571dc1942fcebfbd3
interp2d_3.png=a9f2a0b0e59ac8cedae3ad22e0b2cc46
interp2d_4.png=6721e8c874b8c8c2badc14cb66dfc335
interp_1.png=f58742fc485ae0236bf69ee2ca56a18c
interp_2.png=07cd179b04b37e191b2e7cf21ba64dbe
interpln_1.png=bd4566ba45e721c3a1d47695a7166240
intg_en_US_1.png=2088693099d251fbe5e6b999903bc209
intg_fr_FR_1.png=2088693099d251fbe5e6b999903bc209
intg_ja_JP_1.png=2088693099d251fbe5e6b999903bc209
intg_pt_BR_1.png=2088693099d251fbe5e6b999903bc209
intg_ru_RU_1.png=2088693099d251fbe5e6b999903bc209
isoview_1.png=e790c7133eeb3870b6ecf6aff552fa19
isoview_en_US_2.png=7f599cee0ebf55f0e9656eb280e7af3c
isoview_fr_FR_2.png=8e441a3c56e558a5b5bafdf3dba2d61c
isoview_ja_JP_2.png=7f599cee0ebf55f0e9656eb280e7af3c
isoview_pt_BR_2.png=7f599cee0ebf55f0e9656eb280e7af3c
isoview_ru_RU_2.png=e0e43a2428b1a0dff256c077ed45c07e
jetcolormap_1.png=1e12eded706f4c2d3dc1c34c389ebd2d
karmarkar_1.png=626ad2a9c40850305ba69410b5c17794
kpure_1.png=a4531e4182cb8da893aaa2a449b3f667
kpure_2.png=b55796f4bc301176449663934c11e885
leastsq_1.png=960379ff4b2b8d2fa16b2cd699fc99c8
legend_1.png=97285d5e5c6f31a671f5e16106fc3f77
legendre_1.png=ef5d177f39f62988377e88eeba509bea
legendre_2.png=d294e354a348043239f5862d5f2f3d92
legends_1.png=311d56dc35e38fec75227aa7a7135410
legends_2.png=ae5b2ed81bc9406e025808031ba6aee0
lev_1.png=f11db4e8008cd7f17b2aebfea2cd9193
light_1.png=f42f78d4e05d971c6eb48b70a3edf3fb
light_properties_1.png=beee4baee06f6261c73f63517c188d18
lighting_1.png=9506c0750c1b9541c749a39166213f29
lighting_2.png=2f09837a0807ac6bc45aeb6842038029
lighting_3.png=4db104cec73db5309f073b24c2d740e1
linear_interpn_1.png=6097d912048862430be0c7efc1cb5715
linear_interpn_2.png=babfba25d7f0743ed8a6f6618379fba9
locate_1.png=12b128890d9e8e2336d8db9d64d8dfcb
loglog_1.png=9e23c974da76a0bce5dac20746f5b3fb
lqe_1.png=39cd8f90954e2b934b4926badcd56f7b
lqg_1.png=3e8627090476b38335a391eb831767a6
lqg_2.png=d0a7523f9ddee9c5f11c06682ff1b0c6
lqr_1.png=269d7421a9d109d37259c9739612dd21
lsq_splin_1.png=35722a6a58a3c9afd427b0bb23f1382a
mapsound_1.png=775cb5d77a6f98c880e27960c4e39514
mapsound_2.png=ea66eb5ccd62fd3d034df457c68d86ab
mapsound_3.png=ae8b5e54d534fb6a64de9659665d5afa
mapsound_4.png=572ed70b9c0491be98d7bc9a3c1cc83f
mapsound_5.png=98d28e5f40d5579d1e6807aa87f31f9e
math_rendering_features_in_graphic_1.png=b1259d51258d72193bd32a47c8f96ca4
math_rendering_features_in_graphic_2.png=c93a1a79cbe217871185826f83fdd7bb
mese_1.png=c4ce712eded4fbbd49bb86b02e14afe9
mesh2d_1.png=8724ab90c203765f8e35a003b526b560
mesh_1.png=a17150f02dbe853486f73801c9afcd11
meshgrid_1.png=c7dfaf642b8123d96d5131426eef0ca6
move_1.png=c4599a8693c9c099ac9c7f1a5dee3e91
mrfit_1.png=d8d3736f01fc8fc707c53508cddd575f
nanreglin_1.png=a2189dd0a4084c54b9c1e05b45db555b
nanreglin_2.png=5a3c75b736030778ba4a1717051810cb
nchoosek_1.png=1f8c615fef042cb5f754a00ef9d8a7bd
nchoosek_2.png=7623d11ae3eafa6fa6eea1546d7710ff
nchoosek_3.png=f05fd5b52c25f76208d91dc4ca10af2f
ndgrid_1.png=881b8c6e4e1ccf21fce8004766f2df8d
ndgrid_2.png=02c9c5b309ed4b25ee57c8b35e6a1fe1
ndgrid_ru_RU_2.png=4ea2b3c6a3035633dbbdf9ffc2c7a676
nicholschart_en_US_1.png=364f970d6bb93b0f839013928c7c006a
nicholschart_en_US_2.png=0f5b59c05f28aad6beae03208bc3fa07
nicholschart_fr_FR_1.png=364f970d6bb93b0f839013928c7c006a
nicholschart_fr_FR_2.png=0f5b59c05f28aad6beae03208bc3fa07
nicholschart_ja_JP_1.png=364f970d6bb93b0f839013928c7c006a
nicholschart_ja_JP_2.png=d24a24247f03f61ff1a2c6647064221e
nicholschart_pt_BR_1.png=364f970d6bb93b0f839013928c7c006a
nicholschart_pt_BR_2.png=0f5b59c05f28aad6beae03208bc3fa07
nicholschart_ru_RU_1.png=364f970d6bb93b0f839013928c7c006a
nicholschart_ru_RU_2.png=0f5b59c05f28aad6beae03208bc3fa07
nyquist_en_US_1.png=26826b399f567100ed0118a54c896b5a
nyquist_en_US_2.png=483907f07d0871646b976ed4c6db1ca2
nyquist_fr_FR_1.png=26826b399f567100ed0118a54c896b5a
nyquist_fr_FR_2.png=483907f07d0871646b976ed4c6db1ca2
nyquist_ja_JP_1.png=90d0fa3d34fa0a6f3cd400a2c0028329
nyquist_ja_JP_2.png=483907f07d0871646b976ed4c6db1ca2
nyquist_ru_RU_1.png=26826b399f567100ed0118a54c896b5a
nyquist_ru_RU_2.png=483907f07d0871646b976ed4c6db1ca2
nyquistfrequencybounds_1.png=cc36d1807604c718839f5e291dc08f5a
oceancolormap_1.png=0bbb2c5edd957782c0a5b7d64761b993
ode_1.png=bc747e3d4ca0f53146a64200608fc863
odedc_1.png=dd2b2dedd27d1e31522bf03a071f1f52
odedc_2.png=e200739457adb87740d6eda59334854b
odedc_3.png=3d3d5ac8d7a133e26039e93609be5cd0
odeoptions_1.png=12573ee6be852c456cf883e79dbea5f6
optim_1.png=acf2f97c596c56782cb5cfa3ddb9de3a
optim_sa_1.png=b2a6a1ff9fec247aba2e606e45387997
ordmmd_en_US_1.png=65695a27c9eaf674ba4eac782ec20eba
ordmmd_fr_FR_1.png=65695a27c9eaf674ba4eac782ec20eba
ordmmd_ja_JP_1.png=65695a27c9eaf674ba4eac782ec20eba
ordmmd_pt_BR_1.png=65695a27c9eaf674ba4eac782ec20eba
ordmmd_ru_RU_1.png=65695a27c9eaf674ba4eac782ec20eba
orthProj_1.png=ce22c81dda75863eb40a717f11c88011
param3d_1.png=a13e8ee1973383456316f059e1527b10
param3d_2.png=7c101a361b575bb927013e52b76cb3ea
param3d_3.png=b0f376ac390de56c3c2cba61456e75db
param3d_4.png=d2aca1e05df03e8bee45d115c6668285
parulacolormap_1.png=6d19dadbcf270d0bd89aeda86573f45e
phasemag_1.png=461defdcbb7fea7738cb6657571edc15
phasemag_2.png=b937bb324ac0206d43d82aed0f6ccd16
phaseplot_en_US_1.png=011314c3417156a7f80611d56e512dff
phaseplot_fr_FR_1.png=011314c3417156a7f80611d56e512dff
phaseplot_ja_JP_1.png=011314c3417156a7f80611d56e512dff
phaseplot_pt_BR_1.png=011314c3417156a7f80611d56e512dff
phaseplot_ru_RU_1.png=011314c3417156a7f80611d56e512dff
pie_1.png=f6e707ec2c55fe1b1a8a42ed2c259461
pie_2.png=2a079e38a22d5166230fb0564a2fbb60
pie_3.png=1b0fa134f30208b6f481d3f989b53777
pinkcolormap_1.png=923c094fc37264c19d2284408b3877a5
plot2d2_1.png=acda91a7794488f45732137746f340e1
plot2d2_2.png=7a7c218451d032290b045c201bf5bc7a
plot2d2_3.png=72e2bbb186ddf94109c97fcbbf35f5e7
plot2d3_1.png=fcdc7523ac25a527764cdbb9351d7a58
plot2d3_2.png=42ff831fb2c002525f96d9232fdd718b
plot2d4_1.png=ca17ee46fae89a343407d090111051b5
plot2d4_2.png=1115770f63002c2f37c5f42fd1a48c58
plot2d_1.png=6938527906d00e35013f43aa6810e52f
plot2d_10.png=037babd15bbc1cf1052a9afaef72ca85
plot2d_2.png=48949e8c7de5cab2f8f68e9b0d30f65a
plot2d_3.png=d491471e1355626da75f16255adbbf45
plot2d_4.png=8db7dbb9f894fa92f0426971771818fa
plot2d_5.png=dc9304b659b4aebf33e4ec45fd07a9eb
plot2d_6.png=4c8563bfa28b0731aab8b09361b61545
plot2d_7.png=ae1cd4d3d5c3d0d7a4321adba5e3a224
plot2d_8.png=54bcc043076eccf0df3a7363b9b45057
plot2d_9.png=0e0d3d935f99e7747b28561b3fd05eff
plot3d1_1.png=773d7b1dad9f615a99292c162aaa48c9
plot3d1_2.png=3200245986ed735d3f68d8b9c5bbba04
plot3d1_3.png=2d040ce5eb82b122cca377f269ebe08f
plot3d1_4.png=e9e592a5beaba64ac6e355a48b83e545
plot3d1_5.png=c22d9c9d2e2373eaa6ef0b8860506aa4
plot3d1_6.png=fc0620dc6f578711980018fed81d4475
plot3d2_1.png=a6cfacc6af759d404f9dd74455cde45c
plot3d3_1.png=baa919b1749a9cfdffe8e31d83e6970e
plot3d_1.png=af70391f12ad43a0656abf467c522cb5
plot3d_10.png=b82e6b29bd1a0c2fc3c0457aff79e65c
plot3d_11.png=a42e36783eb678337ac68cea11a33c72
plot3d_2.png=646f07e5050eda3bcb8b1ee81afc4670
plot3d_3.png=d30f993b7a37681ea66e45d3bb17c2fa
plot3d_4.png=649437ed32a1f4691421b065bbc4051d
plot3d_5.png=e5cd222632f0207e2f48a946c5e46aec
plot3d_6.png=a491f1e7b84b7fbf50eb39a6d795fb81
plot3d_7.png=b106077ec3b360ba717fef4579da3f55
plot3d_8.png=d7ca9d9d5dd993d30bc6423a0528ff8e
plot3d_9.png=c0f93d84e3ccdc76486bd41209b1f76b
plot_1.png=df8aeb1d865adef40f0e9a2068d9d527
plot_10.png=7892b92465386a710d20d0a30cf46304
plot_11.png=bead04d3923168e8291932e665abffa0
plot_2.png=ad242947214d2866107c147f5384e0a9
plot_3.png=6549659743df2155be3061577f86c428
plot_4.png=05411294e38970b93bd2e96047171bdd
plot_5.png=409a923b00065c83b6e42ed1cbfa4c29
plot_6.png=f2a02f303bf4578fe0c029abc8f084dd
plot_7.png=25b0dc1bfdba78e499055bedf79020dc
plot_8.png=6530b1526ca007d68c095bb76295eade
plot_9.png=df9a6a6decb537fae8a8adde2304a85a
plot_multiscaled_1.png=139dc4c6fd62728b6f08e4529fc775fa
plot_multiscaled_2.png=8ea6f9394968a8d02d09e1a66064c718
plot_multiscaled_3.png=97b20f253d676c6d66fe322172b960ac
plot_multiscaled_4.png=b30c7820c6e5d9d5e418f1638be429bd
plotimplicit_1.png=1df44be6be9fafdf02a7ccbf3898616c
plotimplicit_2.png=093023d1fc2796a86689cf3d7f65878f
plotimplicit_3.png=a94acd37c43dd09841e44b07d0b18511
plotimplicit_4.png=dd2abe1ebe56819696eeaeb82751a0a7
polarplot_1.png=92b1189dd351372e587b472bad213e09
polarplot_2.png=7a5f1cd3ef07687170c0de62231a2b5c
polarplot_3.png=f11a25552a72c4454001c29b97073379
polarplot_4.png=a4df61be3e5a6aa65eb22ab44e9dc5d3
polyline_properties_1.png=eabc301b4b96a55a248196b46490df7a
polyline_properties_2.png=5458d2f7efc2756fbb364a80e066588f
polyline_properties_3.png=3349e39fe563e09fc488e9ed03c6e4ae
prbs_a_1.png=4e8551544fa2d2085e74ddfe799ec579
prbs_a_2.png=ef716bac583e1660fe1f49a4352b7b4b
prettyprint_1.png=5d60f609825ec81746672b39278e27ad
rainbowcolormap_1.png=68be57c62080633d0e67a91389f5ecd8
reglin_1.png=9b22e4b782eb58eb90e5dccd50dfb466
reglin_2.png=109258bc122deeadf53e2b832d510201
remezb_1.png=17a8eb044482a1871bede91c36eddf0f
replot_1.png=d9ab231632d9298a6f87718df49ce8ae
replot_2.png=d028a3a3de7e675c9f31c8a2d7fabe17
rotate_1.png=df252732000d1c17d23c04e038b1b0f3
rpem_1.png=f1f661c0f1bc866f159ff8e328971f0f
save_1.png=63b05d0803a6d3427fd26fa7cea17612
sca_1.png=26a128db93d82d857191be51313e1d87
scatter3d_1.png=cbbdea1f404044cfe78f1117b80de4a4
scatter3d_2.png=21d465cbdd78f8f77340374be02c90ee
scatter3d_3.png=a9ba1468450ff0ffc2e2fd8d6431f8b7
scatter3d_4.png=28d8d38163017d090d297fb2e4db5729
scatter_1.png=646bbe944e44c654d6ae28970ebe6f8a
scatter_2.png=58444c8064eb8a1e525b5f86ff1a752f
scatter_3.png=83266e7cf79dd2348cc156f758034c30
scatter_4.png=69656bd429e50cb1f1e8fb215f96a89e
scatter_5.png=bc8b9d73f5a7ee31f4350b557ec2b740
scatter_6.png=79aeb185f9626209bd196b3d7753d650
scifunc_block_m_1.png=a26368cd2a69c472967105b9d8deb5ed
sec_1.png=4eff2516ae7932bb126b6e2fa133f046
sech_1.png=62b827923764aaaf8ce355b0256bef3b
semilogx_1.png=b5d0ccb773bc68cab682b85e9299840c
semilogy_1.png=22736d35bd7a6dff1a92af7a203cd81e
sgolay_1.png=a68d1b4aa9bbf7ccfcd38dfd6158cf01
sgolay_2.png=9ec7d521df8c827f7ef37e2997613bd6
sgolaydiff_1.png=68aacc1223db752ac39fbede1935ac75
sgolayfilt_1.png=e6c2afd9293c4a59cddb04e2a4dd8ce5
sgrid_1.png=a5e9d0fb3e290982e4c01a50b800b8ff
sgrid_2.png=260f87be847f70d84df4d1013bd9113b
sgrid_3.png=b26fd988424a754a724bd483a4f26e0f
sgrid_en_US_3.png=d10d1338bed22d7ec12b933e84d84dff
sgrid_fr_FR_3.png=d10d1338bed22d7ec12b933e84d84dff
sgrid_ru_RU_3.png=d10d1338bed22d7ec12b933e84d84dff
show_margins_en_US_1.png=698c2e49c740d473e95a6fc890c00860
show_margins_en_US_2.png=0a3a47700e4703a9f57f5b183be970fb
show_margins_fr_FR_1.png=698c2e49c740d473e95a6fc890c00860
show_margins_fr_FR_2.png=0a3a47700e4703a9f57f5b183be970fb
show_margins_ja_JP_1.png=698c2e49c740d473e95a6fc890c00860
show_margins_ja_JP_2.png=0a3a47700e4703a9f57f5b183be970fb
show_margins_pt_BR_1.png=698c2e49c740d473e95a6fc890c00860
show_margins_pt_BR_2.png=0a3a47700e4703a9f57f5b183be970fb
show_margins_ru_RU_1.png=698c2e49c740d473e95a6fc890c00860
show_margins_ru_RU_2.png=0a3a47700e4703a9f57f5b183be970fb
sin_1.png=e0478ada92a7cfffb763d2833a8362b7
sinc_1.png=a3fc583744e18f36877244ba10adc94f
sinc_2.png=6fdf9909b30d83c046da8829d7905bb2
sinh_1.png=a6d9cd67d383e2b737257c4a18317abe
smooth_1.png=ebef37585006626b34e13b95a3667e9d
splin2d_1.png=6e186e7bcf5d848fd9d8f354282f6489
splin2d_2.png=f36065c49f29e782c8b49e2958ad75c0
splin3d_en_US_1.png=924b5de4c3968e33949dd67fbeac437d
splin3d_fr_FR_1.png=924b5de4c3968e33949dd67fbeac437d
splin3d_ja_JP_1.png=924b5de4c3968e33949dd67fbeac437d
splin3d_pt_BR_1.png=824351144431623cf3cd917f2453dc1e
splin3d_ru_RU_1.png=924b5de4c3968e33949dd67fbeac437d
splin_1.png=4982eeb64b3dc94cc23e16b4e5af0b15
splin_2.png=446983411e4aa2a48c9aa96edef44404
springcolormap_1.png=b6f8f97a269786a9d53e4fe31b097861
stringbox_1.png=6546ab6a9d8edbd09c41eebc2b77c67b
subplot_1.png=765668cf3220d7a8e1db4de8fe815b50
subplot_2.png=ee882cd4d9decc7830268a7789c2d708
subplot_ru_RU_2.png=809bf9fc254afe14e891c56e13606d1f
summercolormap_1.png=b6e693f0c3ddcfcb7271926e20457ebd
surf_1.png=99bdb76f83b1c67ab63193e5a28135a4
surf_10.png=c18da91e3465c1e46c633a9a5b1c86b8
surf_2.png=b9d7ae605f66b95c75845c81ed273fdc
surf_3.png=b3e7843f11e771c355271e4a86fab88c
surf_4.png=bdd0f9ca47ebab239e0321b20131d18b
surf_5.png=7f7cf0008764837a48ffb5f0e350765a
surf_6.png=103f1fd4cfc2217fe197abd0d14febf0
surf_7.png=d49cf32bd70642bdc7d5b50b675775fc
surf_8.png=f14a7126b2af207ede224056e90e25ab
surf_9.png=92cc5270fc0bd51ef3553b21774634f4
svplot_1.png=7b4e6b3820708a019268aaadf2f04340
tabul_1.png=4a0bd7b7b0d1abe065a31a235940e2a2
tan_1.png=7ed3a609064320b0ee99e0cfe612d8cf
tanh_1.png=5840b9271a8ec32413927548050b6bdf
taucs_chget_1.png=de0b7d8f19e3b65daab09bd1eddadfd9
text_properties_1.png=0e89c2e3ef82bc25441ef577e5ea69c6
title_1.png=046f4d445c21c99a05454387dfa49fe4
titlepage_1.png=917be99c9df0964672daa45c284de115
titlepage_en_US_2.png=4442891fd6f287a8fb39b92006ff40c5
titlepage_fr_FR_1.png=f76157d643854ea8716178823dd2680e
titlepage_fr_FR_2.png=b709d54b9476c67d4272f1e086f33909
titlepage_ru_RU_2.png=4442891fd6f287a8fb39b92006ff40c5
trans_1.png=0a5ddde2263a28ffaba21606bcfc2232
unwrap_1.png=b55bd8834f6ed873c3c614d5b81a7484
wavread_1.png=7f4fa7fd3215e86c6beac1b99ed5c107
whitecolormap_1.png=5c902a640b651c5ec7bcfdeba604e3c0
wiener_1.png=07cf1c15abff7e9f0c2ca9bd45882a5c
wigner_1.png=f775cca252e20dd1029d24f5cc6f430a
window_1.png=4de5a4eee9a8a1ef039c8c9c8e65d6bb
window_2.png=44cddcb55562ebc6e02da35aafb9c0c0
window_3.png=5da80737d10d701654fe8d0b5b5bc703
wintercolormap_1.png=149a68e3ce0fc6154a1b5f9ee7c63796
xarc_1.png=98ae0ca8816136f1aa553ffb527209b6
xarc_2.png=cc873861271071e2fdc147d8fa82617c
xarcs_1.png=57b4f11abec7404c3a8a739a2d113865
xarrows_1.png=5fe05f29338e5d7c936404917632d6e4
xarrows_2.png=07e3e934e8efaef5c71a65a626f60fee
xcorr_1.png=d4e2cafacf9bbb0ea03e5cc9ef446de6
xcov_1.png=55382455c759833b21412f376fbd2edb
xfarc_1.png=e0b0e0340f75791bc3989a9eacb637fd
xfarcs_1.png=fdc755f85c726cde5b0cbaed1feea126
xfpoly_1.png=994c788f46b7d5475b295a1b2464a3a2
xfpolys_1.png=7d24bee61db482cd4f3a2556ee6cf3e3
xfpolys_2.png=5618554c0ad9cfea7f921e8747dd8dca
xfpolys_3.png=e7d0e541d182062f243f90d111f7ecde
xfrect_1.png=17ac92d176dfc56c91f7321423523ed7
xgrid_1.png=1e49a2c7efa08eeed42aee791c3f1959
xlabel_1.png=5282bb0a2050be9d40c2931750f2fed7
xnumb_1.png=e2966910792ea6c60caf87dc7d25f856
xpoly_1.png=f54ce2ba82e1125456e9efd2b74d1005
xpoly_2.png=56e4bf7c2fbf668f6c3da56bd3bd64ea
xpolys_1.png=30719dcd92ada868282322dd1bd0ee11
xrect_1.png=4f05d205e4b7b787bea3c50e79494cde
xrects_1.png=6ba2f52a6d5b6103f1b40aa20992f34f
xrpoly_1.png=a453e690b0ac9bcf7d55367410f5f3b6
xsegs_1.png=91a8de636798e8ed7e9f15392f7b9dbb
xsegs_2.png=783a2ea9b55226bfd7178df7eff61eef
xsegs_3.png=2720d5a3fc9a5fa2b8fc682fb34ef0aa
xsetech_1.png=48b17a1685f6a9789c0265f76f61838c
xsetech_2.png=45c810d91fb4dcdd855aef433b7f44d8
xsetech_3.png=702ac81ee5024ba15ab34176ebce2e73
xstring_1.png=6b33769d0916b641755a0fa056f10378
xstringb_1.png=c7c1db7aee55fde60cc5c0d5314f9ce5
xstringl_3.png=88b6cd599658f1be8239b1e88ea28bce
xstringl_en_US_1.png=77cf3298ae33ee0458bb4bedd536377a
xstringl_en_US_2.png=e8b53d8536f460722b24fd87537a03bb
xstringl_fr_FR_1.png=6053fed31dfc3575632182d100fa9c9b
xstringl_fr_FR_2.png=0c8f51ca448ddb3a5d74a3eacc8c3016
xstringl_ja_JP_1.png=7a318325ae28e851a48d79d70312683a
xstringl_ru_RU_1.png=77cf3298ae33ee0458bb4bedd536377a
xstringl_ru_RU_2.png=e8b53d8536f460722b24fd87537a03bb
xtitle_1.png=91a652a9e42e4f149b0d206313acce42
yulewalk_1.png=aa8936b9612d5555b8d3baba672fe2f7
yulewalk_2.png=8b62c274c3250a6037f45a22e0e3c066
zgrid_1.png=190b2ae2de84a85e1712bfa8560013e9
zgrid_en_US_2.png=c13e294bbeef596ee4298e14e66dacb1
zgrid_fr_FR_2.png=c13e294bbeef596ee4298e14e66dacb1
zgrid_ja_JP_2.png=c13e294bbeef596ee4298e14e66dacb1
zgrid_pt_BR_2.png=c13e294bbeef596ee4298e14e66dacb1
zgrid_ru_RU_2.png=c13e294bbeef596ee4298e14e66dacb1
